{"frames": {

"frog_simple_0000":
{
	"frame": {"x":1,"y":1109,"w":199,"h":199},
	"rotated": false,
	"trimmed": true,
	"spriteSourceSize": {"x":38,"y":38,"w":199,"h":199},
	"sourceSize": {"w":275,"h":275}
},
"frog_simple_0002":
{
	"frame": {"x":1663,"y":1,"w":257,"h":252},
	"rotated": false,
	"trimmed": true,
	"spriteSourceSize": {"x":8,"y":9,"w":257,"h":252},
	"sourceSize": {"w":275,"h":275}
},
"frog_simple_0004":
{
	"frame": {"x":832,"y":831,"w":271,"h":268},
	"rotated": false,
	"trimmed": true,
	"spriteSourceSize": {"x":1,"y":3,"w":271,"h":268},
	"sourceSize": {"w":275,"h":275}
},
"frog_simple_0006":
{
	"frame": {"x":1,"y":1,"w":275,"h":275},
	"rotated": false,
	"trimmed": false,
	"spriteSourceSize": {"x":0,"y":0,"w":275,"h":275},
	"sourceSize": {"w":275,"h":275}
},
"frog_simple_0008":
{
	"frame": {"x":1,"y":278,"w":275,"h":275},
	"rotated": false,
	"trimmed": false,
	"spriteSourceSize": {"x":0,"y":0,"w":275,"h":275},
	"sourceSize": {"w":275,"h":275}
},
"frog_simple_0010":
{
	"frame": {"x":1,"y":555,"w":275,"h":275},
	"rotated": false,
	"trimmed": false,
	"spriteSourceSize": {"x":0,"y":0,"w":275,"h":275},
	"sourceSize": {"w":275,"h":275}
},
"frog_simple_0012":
{
	"frame": {"x":1,"y":832,"w":275,"h":275},
	"rotated": false,
	"trimmed": false,
	"spriteSourceSize": {"x":0,"y":0,"w":275,"h":275},
	"sourceSize": {"w":275,"h":275}
},
"frog_simple_0014":
{
	"frame": {"x":278,"y":1,"w":275,"h":275},
	"rotated": false,
	"trimmed": false,
	"spriteSourceSize": {"x":0,"y":0,"w":275,"h":275},
	"sourceSize": {"w":275,"h":275}
},
"frog_simple_0016":
{
	"frame": {"x":278,"y":278,"w":275,"h":275},
	"rotated": false,
	"trimmed": false,
	"spriteSourceSize": {"x":0,"y":0,"w":275,"h":275},
	"sourceSize": {"w":275,"h":275}
},
"frog_simple_0018":
{
	"frame": {"x":278,"y":555,"w":275,"h":275},
	"rotated": false,
	"trimmed": false,
	"spriteSourceSize": {"x":0,"y":0,"w":275,"h":275},
	"sourceSize": {"w":275,"h":275}
},
"frog_simple_0020":
{
	"frame": {"x":278,"y":832,"w":275,"h":275},
	"rotated": false,
	"trimmed": false,
	"spriteSourceSize": {"x":0,"y":0,"w":275,"h":275},
	"sourceSize": {"w":275,"h":275}
},
"frog_simple_0022":
{
	"frame": {"x":555,"y":1,"w":275,"h":275},
	"rotated": false,
	"trimmed": false,
	"spriteSourceSize": {"x":0,"y":0,"w":275,"h":275},
	"sourceSize": {"w":275,"h":275}
},
"frog_simple_0024":
{
	"frame": {"x":555,"y":278,"w":275,"h":275},
	"rotated": false,
	"trimmed": false,
	"spriteSourceSize": {"x":0,"y":0,"w":275,"h":275},
	"sourceSize": {"w":275,"h":275}
},
"frog_simple_0026":
{
	"frame": {"x":555,"y":555,"w":275,"h":275},
	"rotated": false,
	"trimmed": false,
	"spriteSourceSize": {"x":0,"y":0,"w":275,"h":275},
	"sourceSize": {"w":275,"h":275}
},
"frog_simple_0028":
{
	"frame": {"x":555,"y":832,"w":275,"h":275},
	"rotated": false,
	"trimmed": false,
	"spriteSourceSize": {"x":0,"y":0,"w":275,"h":275},
	"sourceSize": {"w":275,"h":275}
},
"frog_simple_0030":
{
	"frame": {"x":832,"y":1,"w":275,"h":275},
	"rotated": false,
	"trimmed": false,
	"spriteSourceSize": {"x":0,"y":0,"w":275,"h":275},
	"sourceSize": {"w":275,"h":275}
},
"frog_simple_0032":
{
	"frame": {"x":1109,"y":1,"w":275,"h":275},
	"rotated": false,
	"trimmed": false,
	"spriteSourceSize": {"x":0,"y":0,"w":275,"h":275},
	"sourceSize": {"w":275,"h":275}
},
"frog_simple_0034":
{
	"frame": {"x":1386,"y":1,"w":275,"h":275},
	"rotated": false,
	"trimmed": false,
	"spriteSourceSize": {"x":0,"y":0,"w":275,"h":275},
	"sourceSize": {"w":275,"h":275}
},
"frog_simple_0036":
{
	"frame": {"x":832,"y":278,"w":275,"h":275},
	"rotated": false,
	"trimmed": false,
	"spriteSourceSize": {"x":0,"y":0,"w":275,"h":275},
	"sourceSize": {"w":275,"h":275}
},
"frog_simple_0038":
{
	"frame": {"x":832,"y":555,"w":273,"h":274},
	"rotated": false,
	"trimmed": true,
	"spriteSourceSize": {"x":1,"y":0,"w":273,"h":274},
	"sourceSize": {"w":275,"h":275}
},
"frog_simple_0040":
{
	"frame": {"x":1385,"y":278,"w":273,"h":275},
	"rotated": false,
	"trimmed": true,
	"spriteSourceSize": {"x":1,"y":0,"w":273,"h":275},
	"sourceSize": {"w":275,"h":275}
},
"frog_simple_0042":
{
	"frame": {"x":1109,"y":554,"w":273,"h":275},
	"rotated": false,
	"trimmed": true,
	"spriteSourceSize": {"x":1,"y":0,"w":273,"h":275},
	"sourceSize": {"w":275,"h":275}
},
"frog_simple_0044":
{
	"frame": {"x":1109,"y":278,"w":274,"h":274},
	"rotated": false,
	"trimmed": true,
	"spriteSourceSize": {"x":0,"y":1,"w":274,"h":274},
	"sourceSize": {"w":275,"h":275}
},
"frog_simple_0046":
{
	"frame": {"x":1384,"y":555,"w":273,"h":271},
	"rotated": false,
	"trimmed": true,
	"spriteSourceSize": {"x":1,"y":2,"w":273,"h":271},
	"sourceSize": {"w":275,"h":275}
},
"frog_simple_0048":
{
	"frame": {"x":1384,"y":828,"w":271,"h":271},
	"rotated": false,
	"trimmed": true,
	"spriteSourceSize": {"x":2,"y":2,"w":271,"h":271},
	"sourceSize": {"w":275,"h":275}
},
"frog_simple_0050":
{
	"frame": {"x":1105,"y":831,"w":271,"h":269},
	"rotated": false,
	"trimmed": true,
	"spriteSourceSize": {"x":2,"y":3,"w":271,"h":269},
	"sourceSize": {"w":275,"h":275}
},
"frog_simple_0052":
{
	"frame": {"x":1657,"y":990,"w":269,"h":267},
	"rotated": false,
	"trimmed": true,
	"spriteSourceSize": {"x":3,"y":4,"w":269,"h":267},
	"sourceSize": {"w":275,"h":275}
},
"frog_simple_0054":
{
	"frame": {"x":1659,"y":723,"w":267,"h":265},
	"rotated": false,
	"trimmed": true,
	"spriteSourceSize": {"x":4,"y":5,"w":267,"h":265},
	"sourceSize": {"w":275,"h":275}
},
"frog_simple_0056":
{
	"frame": {"x":1663,"y":255,"w":251,"h":249},
	"rotated": false,
	"trimmed": true,
	"spriteSourceSize": {"x":12,"y":13,"w":251,"h":249},
	"sourceSize": {"w":275,"h":275}
},
"frog_simple_0058":
{
	"frame": {"x":1660,"y":506,"w":208,"h":215},
	"rotated": false,
	"trimmed": true,
	"spriteSourceSize": {"x":34,"y":25,"w":208,"h":215},
	"sourceSize": {"w":275,"h":275}
},
"frog_simple_0060":
{
	"frame": {"x":832,"y":1101,"w":206,"h":209},
	"rotated": false,
	"trimmed": true,
	"spriteSourceSize": {"x":35,"y":28,"w":206,"h":209},
	"sourceSize": {"w":275,"h":275}
},
"frog_simple_0062":
{
	"frame": {"x":1378,"y":1101,"w":199,"h":209},
	"rotated": false,
	"trimmed": true,
	"spriteSourceSize": {"x":38,"y":28,"w":199,"h":209},
	"sourceSize": {"w":275,"h":275}
},
"frog_simple_0064":
{
	"frame": {"x":1040,"y":1102,"w":199,"h":203},
	"rotated": false,
	"trimmed": true,
	"spriteSourceSize": {"x":38,"y":34,"w":199,"h":203},
	"sourceSize": {"w":275,"h":275}
},
"frog_simple_0066":
{
	"frame": {"x":202,"y":1109,"w":199,"h":199},
	"rotated": false,
	"trimmed": true,
	"spriteSourceSize": {"x":38,"y":38,"w":199,"h":199},
	"sourceSize": {"w":275,"h":275}
},
"frog_simple_0068":
{
	"frame": {"x":403,"y":1109,"w":199,"h":199},
	"rotated": false,
	"trimmed": true,
	"spriteSourceSize": {"x":38,"y":38,"w":199,"h":199},
	"sourceSize": {"w":275,"h":275}
},
"frog_simple_0070":
{
	"frame": {"x":604,"y":1109,"w":199,"h":199},
	"rotated": false,
	"trimmed": true,
	"spriteSourceSize": {"x":38,"y":38,"w":199,"h":199},
	"sourceSize": {"w":275,"h":275}
}},
"meta": {
	"app": "http://www.codeandweb.com/texturepacker",
	"version": "1.0",
	"image": "Frog_animation.png",
	"format": "RGBA8888",
	"size": {"w":1927,"h":1311},
	"scale": "1",
	"smartupdate": "$TexturePacker:SmartUpdate:d371ed5de7f2d5f5676e445995c2082b:923c5163f4befa379a36222325b76bf4:dcb11070aaa95eb8d268aac0c609ea85$"
}
}
