{"frames": {

"Q_0000":
{
	"frame": {"x":1826,"y":832,"w":163,"h":163},
	"rotated": false,
	"trimmed": true,
	"spriteSourceSize": {"x":58,"y":58,"w":163,"h":163},
	"sourceSize": {"w":275,"h":275}
},
"Q_0001":
{
	"frame": {"x":1470,"y":1013,"w":163,"h":167},
	"rotated": false,
	"trimmed": true,
	"spriteSourceSize": {"x":58,"y":54,"w":163,"h":167},
	"sourceSize": {"w":275,"h":275}
},
"Q_0002":
{
	"frame": {"x":1824,"y":1006,"w":164,"h":166},
	"rotated": false,
	"trimmed": true,
	"spriteSourceSize": {"x":57,"y":55,"w":164,"h":166},
	"sourceSize": {"w":275,"h":275}
},
"Q_0003":
{
	"frame": {"x":1078,"y":1044,"w":166,"h":163},
	"rotated": false,
	"trimmed": true,
	"spriteSourceSize": {"x":56,"y":58,"w":166,"h":163},
	"sourceSize": {"w":275,"h":275}
},
"Q_0004":
{
	"frame": {"x":1280,"y":1021,"w":167,"h":165},
	"rotated": false,
	"trimmed": true,
	"spriteSourceSize": {"x":55,"y":57,"w":167,"h":165},
	"sourceSize": {"w":275,"h":275}
},
"Q_0005":
{
	"frame": {"x":1652,"y":1006,"w":170,"h":167},
	"rotated": false,
	"trimmed": true,
	"spriteSourceSize": {"x":54,"y":56,"w":170,"h":167},
	"sourceSize": {"w":275,"h":275}
},
"Q_0006":
{
	"frame": {"x":1652,"y":832,"w":172,"h":172},
	"rotated": false,
	"trimmed": true,
	"spriteSourceSize": {"x":54,"y":54,"w":172,"h":172},
	"sourceSize": {"w":275,"h":275}
},
"Q_0007":
{
	"frame": {"x":1470,"y":832,"w":180,"h":179},
	"rotated": false,
	"trimmed": true,
	"spriteSourceSize": {"x":50,"y":50,"w":180,"h":179},
	"sourceSize": {"w":275,"h":275}
},
"Q_0008":
{
	"frame": {"x":1280,"y":832,"w":188,"h":187},
	"rotated": false,
	"trimmed": true,
	"spriteSourceSize": {"x":46,"y":46,"w":188,"h":187},
	"sourceSize": {"w":275,"h":275}
},
"Q_0009":
{
	"frame": {"x":1078,"y":832,"w":200,"h":210},
	"rotated": false,
	"trimmed": true,
	"spriteSourceSize": {"x":40,"y":30,"w":200,"h":210},
	"sourceSize": {"w":275,"h":275}
},
"Q_0010":
{
	"frame": {"x":278,"y":832,"w":275,"h":268},
	"rotated": false,
	"trimmed": true,
	"spriteSourceSize": {"x":0,"y":4,"w":275,"h":268},
	"sourceSize": {"w":275,"h":275}
},
"Q_0011":
{
	"frame": {"x":555,"y":832,"w":274,"h":275},
	"rotated": false,
	"trimmed": true,
	"spriteSourceSize": {"x":1,"y":0,"w":274,"h":275},
	"sourceSize": {"w":275,"h":275}
},
"Q_0012":
{
	"frame": {"x":1,"y":1,"w":275,"h":275},
	"rotated": false,
	"trimmed": false,
	"spriteSourceSize": {"x":0,"y":0,"w":275,"h":275},
	"sourceSize": {"w":275,"h":275}
},
"Q_0013":
{
	"frame": {"x":278,"y":1,"w":275,"h":275},
	"rotated": false,
	"trimmed": false,
	"spriteSourceSize": {"x":0,"y":0,"w":275,"h":275},
	"sourceSize": {"w":275,"h":275}
},
"Q_0014":
{
	"frame": {"x":555,"y":1,"w":275,"h":275},
	"rotated": false,
	"trimmed": false,
	"spriteSourceSize": {"x":0,"y":0,"w":275,"h":275},
	"sourceSize": {"w":275,"h":275}
},
"Q_0015":
{
	"frame": {"x":832,"y":1,"w":275,"h":275},
	"rotated": false,
	"trimmed": false,
	"spriteSourceSize": {"x":0,"y":0,"w":275,"h":275},
	"sourceSize": {"w":275,"h":275}
},
"Q_0016":
{
	"frame": {"x":1109,"y":1,"w":275,"h":275},
	"rotated": false,
	"trimmed": false,
	"spriteSourceSize": {"x":0,"y":0,"w":275,"h":275},
	"sourceSize": {"w":275,"h":275}
},
"Q_0017":
{
	"frame": {"x":1386,"y":1,"w":275,"h":275},
	"rotated": false,
	"trimmed": false,
	"spriteSourceSize": {"x":0,"y":0,"w":275,"h":275},
	"sourceSize": {"w":275,"h":275}
},
"Q_0018":
{
	"frame": {"x":1663,"y":1,"w":275,"h":275},
	"rotated": false,
	"trimmed": false,
	"spriteSourceSize": {"x":0,"y":0,"w":275,"h":275},
	"sourceSize": {"w":275,"h":275}
},
"Q_0019":
{
	"frame": {"x":1,"y":278,"w":275,"h":275},
	"rotated": false,
	"trimmed": false,
	"spriteSourceSize": {"x":0,"y":0,"w":275,"h":275},
	"sourceSize": {"w":275,"h":275}
},
"Q_0020":
{
	"frame": {"x":278,"y":278,"w":275,"h":275},
	"rotated": false,
	"trimmed": false,
	"spriteSourceSize": {"x":0,"y":0,"w":275,"h":275},
	"sourceSize": {"w":275,"h":275}
},
"Q_0021":
{
	"frame": {"x":555,"y":278,"w":275,"h":275},
	"rotated": false,
	"trimmed": false,
	"spriteSourceSize": {"x":0,"y":0,"w":275,"h":275},
	"sourceSize": {"w":275,"h":275}
},
"Q_0022":
{
	"frame": {"x":832,"y":278,"w":275,"h":275},
	"rotated": false,
	"trimmed": false,
	"spriteSourceSize": {"x":0,"y":0,"w":275,"h":275},
	"sourceSize": {"w":275,"h":275}
},
"Q_0023":
{
	"frame": {"x":1109,"y":278,"w":275,"h":275},
	"rotated": false,
	"trimmed": false,
	"spriteSourceSize": {"x":0,"y":0,"w":275,"h":275},
	"sourceSize": {"w":275,"h":275}
},
"Q_0024":
{
	"frame": {"x":1386,"y":278,"w":275,"h":275},
	"rotated": false,
	"trimmed": false,
	"spriteSourceSize": {"x":0,"y":0,"w":275,"h":275},
	"sourceSize": {"w":275,"h":275}
},
"Q_0025":
{
	"frame": {"x":1663,"y":278,"w":275,"h":275},
	"rotated": false,
	"trimmed": false,
	"spriteSourceSize": {"x":0,"y":0,"w":275,"h":275},
	"sourceSize": {"w":275,"h":275}
},
"Q_0026":
{
	"frame": {"x":1,"y":555,"w":275,"h":275},
	"rotated": false,
	"trimmed": false,
	"spriteSourceSize": {"x":0,"y":0,"w":275,"h":275},
	"sourceSize": {"w":275,"h":275}
},
"Q_0027":
{
	"frame": {"x":278,"y":555,"w":275,"h":275},
	"rotated": false,
	"trimmed": false,
	"spriteSourceSize": {"x":0,"y":0,"w":275,"h":275},
	"sourceSize": {"w":275,"h":275}
},
"Q_0028":
{
	"frame": {"x":555,"y":555,"w":275,"h":275},
	"rotated": false,
	"trimmed": false,
	"spriteSourceSize": {"x":0,"y":0,"w":275,"h":275},
	"sourceSize": {"w":275,"h":275}
},
"Q_0029":
{
	"frame": {"x":832,"y":555,"w":275,"h":275},
	"rotated": false,
	"trimmed": false,
	"spriteSourceSize": {"x":0,"y":0,"w":275,"h":275},
	"sourceSize": {"w":275,"h":275}
},
"Q_0030":
{
	"frame": {"x":1109,"y":555,"w":275,"h":275},
	"rotated": false,
	"trimmed": false,
	"spriteSourceSize": {"x":0,"y":0,"w":275,"h":275},
	"sourceSize": {"w":275,"h":275}
},
"Q_0031":
{
	"frame": {"x":1386,"y":555,"w":275,"h":275},
	"rotated": false,
	"trimmed": false,
	"spriteSourceSize": {"x":0,"y":0,"w":275,"h":275},
	"sourceSize": {"w":275,"h":275}
},
"Q_0032":
{
	"frame": {"x":1663,"y":555,"w":275,"h":275},
	"rotated": false,
	"trimmed": false,
	"spriteSourceSize": {"x":0,"y":0,"w":275,"h":275},
	"sourceSize": {"w":275,"h":275}
},
"Q_0033":
{
	"frame": {"x":1,"y":832,"w":275,"h":271},
	"rotated": false,
	"trimmed": true,
	"spriteSourceSize": {"x":0,"y":1,"w":275,"h":271},
	"sourceSize": {"w":275,"h":275}
},
"Q_0034":
{
	"frame": {"x":831,"y":832,"w":245,"h":247},
	"rotated": false,
	"trimmed": true,
	"spriteSourceSize": {"x":18,"y":14,"w":245,"h":247},
	"sourceSize": {"w":275,"h":275}
}},
"meta": {
	"app": "http://www.codeandweb.com/texturepacker",
	"version": "1.0",
	"image": "Q_animation.png",
	"format": "RGBA8888",
	"size": {"w":1990,"h":1208},
	"scale": "1",
	"smartupdate": "$TexturePacker:SmartUpdate:fbc098ab2c8c4229213f0a69016a4d69:5c6252fb4450e53628dc0a846af1e20d:f910e3dda8cc0d13fcb26cb04262273a$"
}
}
