{"frames": {

"texts/awesome":
{
	"frame": {"x":1,"y":1,"w":700,"h":178},
	"rotated": false,
	"trimmed": false,
	"spriteSourceSize": {"x":0,"y":0,"w":700,"h":178},
	"sourceSize": {"w":700,"h":178}
},
"texts/big":
{
	"frame": {"x":340,"y":181,"w":304,"h":188},
	"rotated": false,
	"trimmed": false,
	"spriteSourceSize": {"x":0,"y":0,"w":304,"h":188},
	"sourceSize": {"w":304,"h":188}
},
"texts/five":
{
	"frame": {"x":1,"y":181,"w":337,"h":158},
	"rotated": false,
	"trimmed": false,
	"spriteSourceSize": {"x":0,"y":0,"w":337,"h":158},
	"sourceSize": {"w":337,"h":158}
},
"texts/in":
{
	"frame": {"x":703,"y":1,"w":303,"h":220},
	"rotated": false,
	"trimmed": false,
	"spriteSourceSize": {"x":0,"y":0,"w":303,"h":220},
	"sourceSize": {"w":303,"h":220}
},
"texts/line":
{
	"frame": {"x":1,"y":341,"w":279,"h":148},
	"rotated": false,
	"trimmed": false,
	"spriteSourceSize": {"x":0,"y":0,"w":279,"h":148},
	"sourceSize": {"w":279,"h":148}
},
"texts/win":
{
	"frame": {"x":646,"y":223,"w":310,"h":178},
	"rotated": false,
	"trimmed": false,
	"spriteSourceSize": {"x":0,"y":0,"w":310,"h":178},
	"sourceSize": {"w":310,"h":178}
}},
"meta": {
	"app": "http://www.codeandweb.com/texturepacker",
	"version": "1.0",
	"image": "emotions.png",
	"format": "RGBA8888",
	"size": {"w":1007,"h":490},
	"scale": "1",
	"smartupdate": "$TexturePacker:SmartUpdate:5e89cdcca42027ba5baddea6abd67cf1:30142ecc22fb4c30912d4db5e5f414e8:a6f57c18513969c96e812d6ce14ccaca$"
}
}
