{"frames": {

"transform/princess_wich_0000":
{
	"frame": {"x":818,"y":666,"w":199,"h":199},
	"rotated": false,
	"trimmed": true,
	"spriteSourceSize": {"x":38,"y":38,"w":199,"h":199},
	"sourceSize": {"w":275,"h":275}
},
"transform/princess_wich_0002":
{
	"frame": {"x":818,"y":666,"w":199,"h":199},
	"rotated": false,
	"trimmed": true,
	"spriteSourceSize": {"x":38,"y":38,"w":199,"h":199},
	"sourceSize": {"w":275,"h":275}
},
"transform/princess_wich_0004":
{
	"frame": {"x":818,"y":666,"w":199,"h":199},
	"rotated": false,
	"trimmed": true,
	"spriteSourceSize": {"x":38,"y":38,"w":199,"h":199},
	"sourceSize": {"w":275,"h":275}
},
"transform/princess_wich_0006":
{
	"frame": {"x":818,"y":666,"w":199,"h":199},
	"rotated": false,
	"trimmed": true,
	"spriteSourceSize": {"x":38,"y":38,"w":199,"h":199},
	"sourceSize": {"w":275,"h":275}
},
"transform/princess_wich_0008":
{
	"frame": {"x":818,"y":867,"w":199,"h":199},
	"rotated": false,
	"trimmed": true,
	"spriteSourceSize": {"x":38,"y":38,"w":199,"h":199},
	"sourceSize": {"w":275,"h":275}
},
"transform/princess_wich_0010":
{
	"frame": {"x":807,"y":1068,"w":199,"h":199},
	"rotated": false,
	"trimmed": true,
	"spriteSourceSize": {"x":38,"y":38,"w":199,"h":199},
	"sourceSize": {"w":275,"h":275}
},
"transform/princess_wich_0012":
{
	"frame": {"x":530,"y":1534,"w":249,"h":199},
	"rotated": false,
	"trimmed": true,
	"spriteSourceSize": {"x":6,"y":38,"w":249,"h":199},
	"sourceSize": {"w":275,"h":275}
},
"transform/princess_wich_0014":
{
	"frame": {"x":511,"y":1735,"w":247,"h":199},
	"rotated": false,
	"trimmed": true,
	"spriteSourceSize": {"x":15,"y":38,"w":247,"h":199},
	"sourceSize": {"w":275,"h":275}
},
"transform/princess_wich_0016":
{
	"frame": {"x":274,"y":668,"w":268,"h":202},
	"rotated": false,
	"trimmed": true,
	"spriteSourceSize": {"x":4,"y":35,"w":268,"h":202},
	"sourceSize": {"w":275,"h":275}
},
"transform/princess_wich_0018":
{
	"frame": {"x":547,"y":666,"w":269,"h":225},
	"rotated": false,
	"trimmed": true,
	"spriteSourceSize": {"x":5,"y":12,"w":269,"h":225},
	"sourceSize": {"w":275,"h":275}
},
"transform/princess_wich_0020":
{
	"frame": {"x":536,"y":1295,"w":261,"h":237},
	"rotated": false,
	"trimmed": true,
	"spriteSourceSize": {"x":5,"y":0,"w":261,"h":237},
	"sourceSize": {"w":275,"h":275}
},
"transform/princess_wich_0022":
{
	"frame": {"x":1,"y":882,"w":266,"h":237},
	"rotated": false,
	"trimmed": true,
	"spriteSourceSize": {"x":3,"y":0,"w":266,"h":237},
	"sourceSize": {"w":275,"h":275}
},
"transform/princess_wich_0024":
{
	"frame": {"x":1,"y":442,"w":271,"h":237},
	"rotated": false,
	"trimmed": true,
	"spriteSourceSize": {"x":0,"y":0,"w":271,"h":237},
	"sourceSize": {"w":275,"h":275}
},
"transform/princess_wich_0026":
{
	"frame": {"x":278,"y":1,"w":274,"h":237},
	"rotated": false,
	"trimmed": true,
	"spriteSourceSize": {"x":0,"y":0,"w":274,"h":237},
	"sourceSize": {"w":275,"h":275}
},
"transform/princess_wich_0028":
{
	"frame": {"x":1,"y":203,"w":274,"h":237},
	"rotated": false,
	"trimmed": true,
	"spriteSourceSize": {"x":0,"y":0,"w":274,"h":237},
	"sourceSize": {"w":275,"h":275}
},
"transform/princess_wich_0030":
{
	"frame": {"x":551,"y":431,"w":271,"h":233},
	"rotated": false,
	"trimmed": true,
	"spriteSourceSize": {"x":0,"y":4,"w":271,"h":233},
	"sourceSize": {"w":275,"h":275}
},
"transform/princess_wich_0032":
{
	"frame": {"x":277,"y":240,"w":272,"h":225},
	"rotated": false,
	"trimmed": true,
	"spriteSourceSize": {"x":0,"y":12,"w":272,"h":225},
	"sourceSize": {"w":275,"h":275}
},
"transform/princess_wich_0034":
{
	"frame": {"x":554,"y":1,"w":274,"h":217},
	"rotated": false,
	"trimmed": true,
	"spriteSourceSize": {"x":0,"y":20,"w":274,"h":217},
	"sourceSize": {"w":275,"h":275}
},
"transform/princess_wich_0036":
{
	"frame": {"x":554,"y":220,"w":273,"h":209},
	"rotated": false,
	"trimmed": true,
	"spriteSourceSize": {"x":2,"y":28,"w":273,"h":209},
	"sourceSize": {"w":275,"h":275}
},
"transform/princess_wich_0038":
{
	"frame": {"x":1,"y":1,"w":275,"h":200},
	"rotated": false,
	"trimmed": true,
	"spriteSourceSize": {"x":0,"y":37,"w":275,"h":200},
	"sourceSize": {"w":275,"h":275}
},
"transform/princess_wich_0040":
{
	"frame": {"x":274,"y":467,"w":271,"h":199},
	"rotated": false,
	"trimmed": true,
	"spriteSourceSize": {"x":4,"y":38,"w":271,"h":199},
	"sourceSize": {"w":275,"h":275}
},
"transform/princess_wich_0042":
{
	"frame": {"x":1,"y":681,"w":267,"h":199},
	"rotated": false,
	"trimmed": true,
	"spriteSourceSize": {"x":8,"y":38,"w":267,"h":199},
	"sourceSize": {"w":275,"h":275}
},
"transform/princess_wich_0044":
{
	"frame": {"x":539,"y":893,"w":266,"h":199},
	"rotated": false,
	"trimmed": true,
	"spriteSourceSize": {"x":9,"y":38,"w":266,"h":199},
	"sourceSize": {"w":275,"h":275}
},
"transform/princess_wich_0046":
{
	"frame": {"x":269,"y":1073,"w":266,"h":199},
	"rotated": false,
	"trimmed": true,
	"spriteSourceSize": {"x":9,"y":38,"w":266,"h":199},
	"sourceSize": {"w":275,"h":275}
},
"transform/princess_wich_0048":
{
	"frame": {"x":270,"y":872,"w":267,"h":199},
	"rotated": false,
	"trimmed": true,
	"spriteSourceSize": {"x":8,"y":38,"w":267,"h":199},
	"sourceSize": {"w":275,"h":275}
},
"transform/princess_wich_0050":
{
	"frame": {"x":1,"y":1121,"w":266,"h":199},
	"rotated": false,
	"trimmed": true,
	"spriteSourceSize": {"x":9,"y":38,"w":266,"h":199},
	"sourceSize": {"w":275,"h":275}
},
"transform/princess_wich_0052":
{
	"frame": {"x":537,"y":1094,"w":265,"h":199},
	"rotated": false,
	"trimmed": true,
	"spriteSourceSize": {"x":10,"y":38,"w":265,"h":199},
	"sourceSize": {"w":275,"h":275}
},
"transform/princess_wich_0054":
{
	"frame": {"x":269,"y":1274,"w":265,"h":199},
	"rotated": false,
	"trimmed": true,
	"spriteSourceSize": {"x":10,"y":38,"w":265,"h":199},
	"sourceSize": {"w":275,"h":275}
},
"transform/princess_wich_0056":
{
	"frame": {"x":1,"y":1322,"w":265,"h":199},
	"rotated": false,
	"trimmed": true,
	"spriteSourceSize": {"x":10,"y":38,"w":265,"h":199},
	"sourceSize": {"w":275,"h":275}
},
"transform/princess_wich_0058":
{
	"frame": {"x":268,"y":1475,"w":260,"h":199},
	"rotated": false,
	"trimmed": true,
	"spriteSourceSize": {"x":14,"y":38,"w":260,"h":199},
	"sourceSize": {"w":275,"h":275}
},
"transform/princess_wich_0060":
{
	"frame": {"x":1,"y":1523,"w":258,"h":199},
	"rotated": false,
	"trimmed": true,
	"spriteSourceSize": {"x":15,"y":38,"w":258,"h":199},
	"sourceSize": {"w":275,"h":275}
},
"transform/princess_wich_0062":
{
	"frame": {"x":1,"y":1724,"w":255,"h":199},
	"rotated": false,
	"trimmed": true,
	"spriteSourceSize": {"x":16,"y":38,"w":255,"h":199},
	"sourceSize": {"w":275,"h":275}
},
"transform/princess_wich_0064":
{
	"frame": {"x":258,"y":1724,"w":251,"h":199},
	"rotated": false,
	"trimmed": true,
	"spriteSourceSize": {"x":18,"y":38,"w":251,"h":199},
	"sourceSize": {"w":275,"h":275}
},
"transform/princess_wich_0066":
{
	"frame": {"x":760,"y":1735,"w":243,"h":199},
	"rotated": false,
	"trimmed": true,
	"spriteSourceSize": {"x":23,"y":38,"w":243,"h":199},
	"sourceSize": {"w":275,"h":275}
},
"transform/princess_wich_0068":
{
	"frame": {"x":799,"y":1470,"w":221,"h":199},
	"rotated": false,
	"trimmed": true,
	"spriteSourceSize": {"x":38,"y":38,"w":221,"h":199},
	"sourceSize": {"w":275,"h":275}
},
"transform/princess_wich_0070":
{
	"frame": {"x":804,"y":1269,"w":199,"h":199},
	"rotated": false,
	"trimmed": true,
	"spriteSourceSize": {"x":38,"y":38,"w":199,"h":199},
	"sourceSize": {"w":275,"h":275}
}},
"meta": {
	"app": "http://www.codeandweb.com/texturepacker",
	"version": "1.0",
	"image": "transform.png",
	"format": "RGBA8888",
	"size": {"w":1021,"h":1935},
	"scale": "1",
	"smartupdate": "$TexturePacker:SmartUpdate:ecb1f84d280718a814812e9c6eb8e277:b2533512442478b044f6b7b87165e19f:e285d02e1d8ef10eb2f798a3278544bb$"
}
}
