{"frames": {

"autoplay/auto_0000":
{
	"frame": {"x":843,"y":1,"w":206,"h":167},
	"rotated": false,
	"trimmed": true,
	"spriteSourceSize": {"x":3,"y":8,"w":206,"h":167},
	"sourceSize": {"w":220,"h":179}
},
"autoplay/auto_0002":
{
	"frame": {"x":1043,"y":170,"w":206,"h":167},
	"rotated": false,
	"trimmed": true,
	"spriteSourceSize": {"x":3,"y":9,"w":206,"h":167},
	"sourceSize": {"w":220,"h":179}
},
"autoplay/auto_0004":
{
	"frame": {"x":637,"y":691,"w":206,"h":168},
	"rotated": false,
	"trimmed": true,
	"spriteSourceSize": {"x":3,"y":9,"w":206,"h":168},
	"sourceSize": {"w":220,"h":179}
},
"autoplay/auto_0006":
{
	"frame": {"x":836,"y":345,"w":206,"h":168},
	"rotated": false,
	"trimmed": true,
	"spriteSourceSize": {"x":3,"y":8,"w":206,"h":168},
	"sourceSize": {"w":220,"h":179}
},
"autoplay/auto_0008":
{
	"frame": {"x":627,"y":520,"w":207,"h":169},
	"rotated": false,
	"trimmed": true,
	"spriteSourceSize": {"x":2,"y":7,"w":207,"h":169},
	"sourceSize": {"w":220,"h":179}
},
"autoplay/auto_0010":
{
	"frame": {"x":215,"y":349,"w":208,"h":170},
	"rotated": false,
	"trimmed": true,
	"spriteSourceSize": {"x":2,"y":6,"w":208,"h":170},
	"sourceSize": {"w":220,"h":179}
},
"autoplay/auto_0012":
{
	"frame": {"x":215,"y":1,"w":211,"h":170},
	"rotated": false,
	"trimmed": true,
	"spriteSourceSize": {"x":2,"y":5,"w":211,"h":170},
	"sourceSize": {"w":220,"h":179}
},
"autoplay/auto_0014":
{
	"frame": {"x":428,"y":1053,"w":211,"h":171},
	"rotated": false,
	"trimmed": true,
	"spriteSourceSize": {"x":2,"y":4,"w":211,"h":171},
	"sourceSize": {"w":220,"h":179}
},
"autoplay/auto_0016":
{
	"frame": {"x":215,"y":1053,"w":211,"h":172},
	"rotated": false,
	"trimmed": true,
	"spriteSourceSize": {"x":2,"y":3,"w":211,"h":172},
	"sourceSize": {"w":220,"h":179}
},
"autoplay/auto_0018":
{
	"frame": {"x":1,"y":1057,"w":212,"h":172},
	"rotated": false,
	"trimmed": true,
	"spriteSourceSize": {"x":1,"y":3,"w":212,"h":172},
	"sourceSize": {"w":220,"h":179}
},
"autoplay/auto_0020":
{
	"frame": {"x":1,"y":706,"w":211,"h":174},
	"rotated": false,
	"trimmed": true,
	"spriteSourceSize": {"x":2,"y":2,"w":211,"h":174},
	"sourceSize": {"w":220,"h":179}
},
"autoplay/auto_0022":
{
	"frame": {"x":1,"y":178,"w":212,"h":174},
	"rotated": false,
	"trimmed": true,
	"spriteSourceSize": {"x":1,"y":2,"w":212,"h":174},
	"sourceSize": {"w":220,"h":179}
},
"autoplay/auto_0024":
{
	"frame": {"x":1,"y":1,"w":212,"h":175},
	"rotated": false,
	"trimmed": true,
	"spriteSourceSize": {"x":1,"y":2,"w":212,"h":175},
	"sourceSize": {"w":220,"h":179}
},
"autoplay/auto_0026":
{
	"frame": {"x":1,"y":354,"w":212,"h":174},
	"rotated": false,
	"trimmed": true,
	"spriteSourceSize": {"x":1,"y":3,"w":212,"h":174},
	"sourceSize": {"w":220,"h":179}
},
"autoplay/auto_0028":
{
	"frame": {"x":215,"y":521,"w":204,"h":173},
	"rotated": false,
	"trimmed": true,
	"spriteSourceSize": {"x":9,"y":3,"w":204,"h":173},
	"sourceSize": {"w":220,"h":179}
},
"autoplay/auto_0030":
{
	"frame": {"x":1,"y":530,"w":212,"h":174},
	"rotated": false,
	"trimmed": true,
	"spriteSourceSize": {"x":1,"y":3,"w":212,"h":174},
	"sourceSize": {"w":220,"h":179}
},
"autoplay/auto_0032":
{
	"frame": {"x":215,"y":173,"w":204,"h":174},
	"rotated": false,
	"trimmed": true,
	"spriteSourceSize": {"x":9,"y":3,"w":204,"h":174},
	"sourceSize": {"w":220,"h":179}
},
"autoplay/auto_0034":
{
	"frame": {"x":1,"y":882,"w":212,"h":173},
	"rotated": false,
	"trimmed": true,
	"spriteSourceSize": {"x":1,"y":4,"w":212,"h":173},
	"sourceSize": {"w":220,"h":179}
},
"autoplay/auto_0036":
{
	"frame": {"x":425,"y":345,"w":203,"h":173},
	"rotated": false,
	"trimmed": true,
	"spriteSourceSize": {"x":10,"y":4,"w":203,"h":173},
	"sourceSize": {"w":220,"h":179}
},
"autoplay/auto_0038":
{
	"frame": {"x":421,"y":521,"w":204,"h":173},
	"rotated": false,
	"trimmed": true,
	"spriteSourceSize": {"x":9,"y":4,"w":204,"h":173},
	"sourceSize": {"w":220,"h":179}
},
"autoplay/auto_0040":
{
	"frame": {"x":215,"y":880,"w":213,"h":171},
	"rotated": false,
	"trimmed": true,
	"spriteSourceSize": {"x":0,"y":5,"w":213,"h":171},
	"sourceSize": {"w":220,"h":179}
},
"autoplay/auto_0042":
{
	"frame": {"x":631,"y":173,"w":204,"h":170},
	"rotated": false,
	"trimmed": true,
	"spriteSourceSize": {"x":9,"y":6,"w":204,"h":170},
	"sourceSize": {"w":220,"h":179}
},
"autoplay/auto_0044":
{
	"frame": {"x":630,"y":345,"w":204,"h":171},
	"rotated": false,
	"trimmed": true,
	"spriteSourceSize": {"x":9,"y":5,"w":204,"h":171},
	"sourceSize": {"w":220,"h":179}
},
"autoplay/auto_0046":
{
	"frame": {"x":428,"y":1,"w":207,"h":170},
	"rotated": false,
	"trimmed": true,
	"spriteSourceSize": {"x":6,"y":6,"w":207,"h":170},
	"sourceSize": {"w":220,"h":179}
},
"autoplay/auto_0048":
{
	"frame": {"x":429,"y":696,"w":206,"h":170},
	"rotated": false,
	"trimmed": true,
	"spriteSourceSize": {"x":7,"y":6,"w":206,"h":170},
	"sourceSize": {"w":220,"h":179}
},
"autoplay/auto_0050":
{
	"frame": {"x":214,"y":706,"w":213,"h":172},
	"rotated": false,
	"trimmed": true,
	"spriteSourceSize": {"x":0,"y":6,"w":213,"h":172},
	"sourceSize": {"w":220,"h":179}
},
"autoplay/auto_0052":
{
	"frame": {"x":421,"y":173,"w":208,"h":170},
	"rotated": false,
	"trimmed": true,
	"spriteSourceSize": {"x":5,"y":8,"w":208,"h":170},
	"sourceSize": {"w":220,"h":179}
},
"autoplay/auto_0054":
{
	"frame": {"x":637,"y":1,"w":204,"h":170},
	"rotated": false,
	"trimmed": true,
	"spriteSourceSize": {"x":9,"y":8,"w":204,"h":170},
	"sourceSize": {"w":220,"h":179}
},
"autoplay/auto_0056":
{
	"frame": {"x":430,"y":868,"w":204,"h":170},
	"rotated": false,
	"trimmed": true,
	"spriteSourceSize": {"x":9,"y":9,"w":204,"h":170},
	"sourceSize": {"w":220,"h":179}
},
"autoplay/auto_0058":
{
	"frame": {"x":837,"y":173,"w":204,"h":169},
	"rotated": false,
	"trimmed": true,
	"spriteSourceSize": {"x":8,"y":9,"w":204,"h":169},
	"sourceSize": {"w":220,"h":179}
},
"autoplay/auto_0060":
{
	"frame": {"x":636,"y":868,"w":204,"h":170},
	"rotated": false,
	"trimmed": true,
	"spriteSourceSize": {"x":8,"y":9,"w":204,"h":170},
	"sourceSize": {"w":220,"h":179}
},
"autoplay/auto_0062":
{
	"frame": {"x":845,"y":686,"w":203,"h":168},
	"rotated": false,
	"trimmed": true,
	"spriteSourceSize": {"x":9,"y":10,"w":203,"h":168},
	"sourceSize": {"w":220,"h":179}
},
"autoplay/auto_0064":
{
	"frame": {"x":1041,"y":515,"w":203,"h":167},
	"rotated": false,
	"trimmed": true,
	"spriteSourceSize": {"x":9,"y":11,"w":203,"h":167},
	"sourceSize": {"w":220,"h":179}
},
"autoplay/auto_0066":
{
	"frame": {"x":641,"y":1040,"w":204,"h":168},
	"rotated": false,
	"trimmed": true,
	"spriteSourceSize": {"x":8,"y":10,"w":204,"h":168},
	"sourceSize": {"w":220,"h":179}
},
"autoplay/auto_0068":
{
	"frame": {"x":836,"y":515,"w":203,"h":169},
	"rotated": false,
	"trimmed": true,
	"spriteSourceSize": {"x":9,"y":9,"w":203,"h":169},
	"sourceSize": {"w":220,"h":179}
},
"autoplay/auto_0070":
{
	"frame": {"x":1044,"y":339,"w":203,"h":166},
	"rotated": false,
	"trimmed": true,
	"spriteSourceSize": {"x":8,"y":11,"w":203,"h":166},
	"sourceSize": {"w":220,"h":179}
},
"autoplay/auto_0072":
{
	"frame": {"x":1259,"y":1,"w":202,"h":165},
	"rotated": false,
	"trimmed": true,
	"spriteSourceSize": {"x":9,"y":11,"w":202,"h":165},
	"sourceSize": {"w":220,"h":179}
},
"autoplay/auto_0074":
{
	"frame": {"x":1246,"y":507,"w":203,"h":165},
	"rotated": false,
	"trimmed": true,
	"spriteSourceSize": {"x":8,"y":12,"w":203,"h":165},
	"sourceSize": {"w":220,"h":179}
},
"autoplay/auto_0076":
{
	"frame": {"x":1249,"y":339,"w":204,"h":164},
	"rotated": false,
	"trimmed": true,
	"spriteSourceSize": {"x":7,"y":12,"w":204,"h":164},
	"sourceSize": {"w":220,"h":179}
},
"autoplay/auto_0078":
{
	"frame": {"x":847,"y":1028,"w":203,"h":164},
	"rotated": false,
	"trimmed": true,
	"spriteSourceSize": {"x":7,"y":11,"w":203,"h":164},
	"sourceSize": {"w":220,"h":179}
},
"autoplay/auto_0080":
{
	"frame": {"x":1050,"y":684,"w":205,"h":165},
	"rotated": false,
	"trimmed": true,
	"spriteSourceSize": {"x":6,"y":11,"w":205,"h":165},
	"sourceSize": {"w":220,"h":179}
},
"autoplay/auto_0082":
{
	"frame": {"x":1251,"y":170,"w":205,"h":163},
	"rotated": false,
	"trimmed": true,
	"spriteSourceSize": {"x":6,"y":11,"w":205,"h":163},
	"sourceSize": {"w":220,"h":179}
},
"autoplay/auto_0084":
{
	"frame": {"x":1051,"y":851,"w":204,"h":163},
	"rotated": false,
	"trimmed": true,
	"spriteSourceSize": {"x":6,"y":11,"w":204,"h":163},
	"sourceSize": {"w":220,"h":179}
},
"autoplay/auto_0086":
{
	"frame": {"x":1052,"y":1016,"w":205,"h":162},
	"rotated": false,
	"trimmed": true,
	"spriteSourceSize": {"x":5,"y":11,"w":205,"h":162},
	"sourceSize": {"w":220,"h":179}
},
"autoplay/auto_0088":
{
	"frame": {"x":1455,"y":335,"w":203,"h":162},
	"rotated": false,
	"trimmed": true,
	"spriteSourceSize": {"x":6,"y":11,"w":203,"h":162},
	"sourceSize": {"w":220,"h":179}
},
"autoplay/auto_0090":
{
	"frame": {"x":842,"y":861,"w":207,"h":165},
	"rotated": false,
	"trimmed": true,
	"spriteSourceSize": {"x":4,"y":10,"w":207,"h":165},
	"sourceSize": {"w":220,"h":179}
},
"autoplay/auto_0092":
{
	"frame": {"x":1664,"y":164,"w":203,"h":159},
	"rotated": false,
	"trimmed": true,
	"spriteSourceSize": {"x":6,"y":13,"w":203,"h":159},
	"sourceSize": {"w":220,"h":179}
},
"autoplay/auto_0094":
{
	"frame": {"x":1669,"y":1,"w":204,"h":158},
	"rotated": false,
	"trimmed": true,
	"spriteSourceSize": {"x":5,"y":14,"w":204,"h":158},
	"sourceSize": {"w":220,"h":179}
},
"autoplay/auto_0096":
{
	"frame": {"x":1660,"y":331,"w":204,"h":159},
	"rotated": false,
	"trimmed": true,
	"spriteSourceSize": {"x":4,"y":13,"w":204,"h":159},
	"sourceSize": {"w":220,"h":179}
},
"autoplay/auto_0098":
{
	"frame": {"x":1463,"y":668,"w":205,"h":159},
	"rotated": false,
	"trimmed": true,
	"spriteSourceSize": {"x":3,"y":13,"w":205,"h":159},
	"sourceSize": {"w":220,"h":179}
},
"autoplay/auto_0100":
{
	"frame": {"x":1259,"y":1001,"w":206,"h":159},
	"rotated": false,
	"trimmed": true,
	"spriteSourceSize": {"x":2,"y":13,"w":206,"h":159},
	"sourceSize": {"w":220,"h":179}
},
"autoplay/auto_0102":
{
	"frame": {"x":1670,"y":657,"w":206,"h":156},
	"rotated": false,
	"trimmed": true,
	"spriteSourceSize": {"x":1,"y":13,"w":206,"h":156},
	"sourceSize": {"w":220,"h":179}
},
"autoplay/auto_0104":
{
	"frame": {"x":1674,"y":815,"w":210,"h":153},
	"rotated": false,
	"trimmed": true,
	"spriteSourceSize": {"x":0,"y":14,"w":210,"h":153},
	"sourceSize": {"w":220,"h":179}
},
"autoplay/auto_0106":
{
	"frame": {"x":1052,"y":1180,"w":210,"h":152},
	"rotated": false,
	"trimmed": true,
	"spriteSourceSize": {"x":0,"y":14,"w":210,"h":152},
	"sourceSize": {"w":220,"h":179}
},
"autoplay/auto_0108":
{
	"frame": {"x":1463,"y":829,"w":209,"h":154},
	"rotated": false,
	"trimmed": true,
	"spriteSourceSize": {"x":0,"y":14,"w":209,"h":154},
	"sourceSize": {"w":220,"h":179}
},
"autoplay/auto_0110":
{
	"frame": {"x":1676,"y":1127,"w":201,"h":154},
	"rotated": false,
	"trimmed": true,
	"spriteSourceSize": {"x":5,"y":13,"w":201,"h":154},
	"sourceSize": {"w":220,"h":179}
},
"autoplay/auto_0112":
{
	"frame": {"x":1675,"y":970,"w":204,"h":155},
	"rotated": false,
	"trimmed": true,
	"spriteSourceSize": {"x":5,"y":14,"w":204,"h":155},
	"sourceSize": {"w":220,"h":179}
},
"autoplay/auto_0114":
{
	"frame": {"x":1467,"y":985,"w":206,"h":156},
	"rotated": false,
	"trimmed": true,
	"spriteSourceSize": {"x":4,"y":11,"w":206,"h":156},
	"sourceSize": {"w":220,"h":179}
},
"autoplay/auto_0116":
{
	"frame": {"x":1658,"y":499,"w":208,"h":156},
	"rotated": false,
	"trimmed": true,
	"spriteSourceSize": {"x":4,"y":11,"w":208,"h":156},
	"sourceSize": {"w":220,"h":179}
},
"autoplay/auto_0118":
{
	"frame": {"x":1470,"y":1143,"w":204,"h":156},
	"rotated": false,
	"trimmed": true,
	"spriteSourceSize": {"x":4,"y":11,"w":204,"h":156},
	"sourceSize": {"w":220,"h":179}
},
"autoplay/auto_0120":
{
	"frame": {"x":1257,"y":674,"w":204,"h":162},
	"rotated": false,
	"trimmed": true,
	"spriteSourceSize": {"x":4,"y":9,"w":204,"h":162},
	"sourceSize": {"w":220,"h":179}
},
"autoplay/auto_0122":
{
	"frame": {"x":1451,"y":505,"w":205,"h":161},
	"rotated": false,
	"trimmed": true,
	"spriteSourceSize": {"x":3,"y":10,"w":205,"h":161},
	"sourceSize": {"w":220,"h":179}
},
"autoplay/auto_0124":
{
	"frame": {"x":1458,"y":168,"w":204,"h":161},
	"rotated": false,
	"trimmed": true,
	"spriteSourceSize": {"x":3,"y":10,"w":204,"h":161},
	"sourceSize": {"w":220,"h":179}
},
"autoplay/auto_0126":
{
	"frame": {"x":1463,"y":1,"w":204,"h":161},
	"rotated": false,
	"trimmed": true,
	"spriteSourceSize": {"x":3,"y":10,"w":204,"h":161},
	"sourceSize": {"w":220,"h":179}
},
"autoplay/auto_0128":
{
	"frame": {"x":1264,"y":1162,"w":204,"h":160},
	"rotated": false,
	"trimmed": true,
	"spriteSourceSize": {"x":3,"y":11,"w":204,"h":160},
	"sourceSize": {"w":220,"h":179}
},
"autoplay/auto_0130":
{
	"frame": {"x":1257,"y":838,"w":204,"h":161},
	"rotated": false,
	"trimmed": true,
	"spriteSourceSize": {"x":3,"y":10,"w":204,"h":161},
	"sourceSize": {"w":220,"h":179}
},
"autoplay/auto_0132":
{
	"frame": {"x":1051,"y":1,"w":206,"h":167},
	"rotated": false,
	"trimmed": true,
	"spriteSourceSize": {"x":3,"y":8,"w":206,"h":167},
	"sourceSize": {"w":220,"h":179}
}},
"meta": {
	"app": "http://www.codeandweb.com/texturepacker",
	"version": "1.0",
	"image": "autoplay.png",
	"format": "RGBA8888",
	"size": {"w":1885,"h":1333},
	"scale": "1",
	"smartupdate": "$TexturePacker:SmartUpdate:09ae0c423f7bc37624fdbc3f837cad62:9207fc72b507675ed658fe4cd555db20:b5b6ebedc7a7d56565708cd11376dbe6$"
}
}
