{"frames": {

"girl_sword_0000":
{
	"frame": {"x":797,"y":375,"w":205,"h":190},
	"rotated": false,
	"trimmed": true,
	"spriteSourceSize": {"x":2,"y":17,"w":205,"h":190},
	"sourceSize": {"w":207,"h":219}
},
"girl_sword_0003":
{
	"frame": {"x":1,"y":752,"w":198,"h":194},
	"rotated": false,
	"trimmed": true,
	"spriteSourceSize": {"x":9,"y":16,"w":198,"h":194},
	"sourceSize": {"w":207,"h":219}
},
"girl_sword_0006":
{
	"frame": {"x":201,"y":752,"w":198,"h":194},
	"rotated": false,
	"trimmed": true,
	"spriteSourceSize": {"x":9,"y":16,"w":198,"h":194},
	"sourceSize": {"w":207,"h":219}
},
"girl_sword_0009":
{
	"frame": {"x":401,"y":759,"w":199,"h":194},
	"rotated": false,
	"trimmed": true,
	"spriteSourceSize": {"x":8,"y":16,"w":199,"h":194},
	"sourceSize": {"w":207,"h":219}
},
"girl_sword_0012":
{
	"frame": {"x":1,"y":1,"w":193,"h":183},
	"rotated": false,
	"trimmed": true,
	"spriteSourceSize": {"x":14,"y":18,"w":193,"h":183},
	"sourceSize": {"w":207,"h":219}
},
"girl_sword_0015":
{
	"frame": {"x":196,"y":1,"w":193,"h":183},
	"rotated": false,
	"trimmed": true,
	"spriteSourceSize": {"x":14,"y":18,"w":193,"h":183},
	"sourceSize": {"w":207,"h":219}
},
"girl_sword_0018":
{
	"frame": {"x":391,"y":1,"w":197,"h":183},
	"rotated": false,
	"trimmed": true,
	"spriteSourceSize": {"x":10,"y":18,"w":197,"h":183},
	"sourceSize": {"w":207,"h":219}
},
"girl_sword_0021":
{
	"frame": {"x":590,"y":1,"w":197,"h":183},
	"rotated": false,
	"trimmed": true,
	"spriteSourceSize": {"x":10,"y":18,"w":197,"h":183},
	"sourceSize": {"w":207,"h":219}
},
"girl_sword_0024":
{
	"frame": {"x":789,"y":1,"w":197,"h":183},
	"rotated": false,
	"trimmed": true,
	"spriteSourceSize": {"x":10,"y":18,"w":197,"h":183},
	"sourceSize": {"w":207,"h":219}
},
"girl_sword_0027":
{
	"frame": {"x":1,"y":186,"w":197,"h":183},
	"rotated": false,
	"trimmed": true,
	"spriteSourceSize": {"x":10,"y":18,"w":197,"h":183},
	"sourceSize": {"w":207,"h":219}
},
"girl_sword_0030":
{
	"frame": {"x":200,"y":186,"w":197,"h":183},
	"rotated": false,
	"trimmed": true,
	"spriteSourceSize": {"x":10,"y":18,"w":197,"h":183},
	"sourceSize": {"w":207,"h":219}
},
"girl_sword_0033":
{
	"frame": {"x":399,"y":186,"w":197,"h":183},
	"rotated": false,
	"trimmed": true,
	"spriteSourceSize": {"x":10,"y":18,"w":197,"h":183},
	"sourceSize": {"w":207,"h":219}
},
"girl_sword_0036":
{
	"frame": {"x":598,"y":186,"w":197,"h":187},
	"rotated": false,
	"trimmed": true,
	"spriteSourceSize": {"x":10,"y":18,"w":197,"h":187},
	"sourceSize": {"w":207,"h":219}
},
"girl_sword_0039":
{
	"frame": {"x":797,"y":186,"w":197,"h":187},
	"rotated": false,
	"trimmed": true,
	"spriteSourceSize": {"x":10,"y":18,"w":197,"h":187},
	"sourceSize": {"w":207,"h":219}
},
"girl_sword_0042":
{
	"frame": {"x":598,"y":375,"w":197,"h":188},
	"rotated": false,
	"trimmed": true,
	"spriteSourceSize": {"x":10,"y":18,"w":197,"h":188},
	"sourceSize": {"w":207,"h":219}
},
"girl_sword_0045":
{
	"frame": {"x":1,"y":371,"w":197,"h":187},
	"rotated": false,
	"trimmed": true,
	"spriteSourceSize": {"x":10,"y":18,"w":197,"h":187},
	"sourceSize": {"w":207,"h":219}
},
"girl_sword_0048":
{
	"frame": {"x":200,"y":371,"w":197,"h":187},
	"rotated": false,
	"trimmed": true,
	"spriteSourceSize": {"x":10,"y":18,"w":197,"h":187},
	"sourceSize": {"w":207,"h":219}
},
"girl_sword_0051":
{
	"frame": {"x":399,"y":371,"w":197,"h":187},
	"rotated": false,
	"trimmed": true,
	"spriteSourceSize": {"x":10,"y":18,"w":197,"h":187},
	"sourceSize": {"w":207,"h":219}
},
"girl_sword_0054":
{
	"frame": {"x":1,"y":560,"w":197,"h":190},
	"rotated": false,
	"trimmed": true,
	"spriteSourceSize": {"x":10,"y":18,"w":197,"h":190},
	"sourceSize": {"w":207,"h":219}
},
"girl_sword_0057":
{
	"frame": {"x":813,"y":567,"w":197,"h":194},
	"rotated": false,
	"trimmed": true,
	"spriteSourceSize": {"x":10,"y":17,"w":197,"h":194},
	"sourceSize": {"w":207,"h":219}
},
"girl_sword_0060":
{
	"frame": {"x":602,"y":762,"w":197,"h":194},
	"rotated": false,
	"trimmed": true,
	"spriteSourceSize": {"x":10,"y":17,"w":197,"h":194},
	"sourceSize": {"w":207,"h":219}
},
"girl_sword_0063":
{
	"frame": {"x":801,"y":763,"w":197,"h":194},
	"rotated": false,
	"trimmed": true,
	"spriteSourceSize": {"x":10,"y":17,"w":197,"h":194},
	"sourceSize": {"w":207,"h":219}
},
"girl_sword_0066":
{
	"frame": {"x":1,"y":948,"w":197,"h":194},
	"rotated": false,
	"trimmed": true,
	"spriteSourceSize": {"x":10,"y":17,"w":197,"h":194},
	"sourceSize": {"w":207,"h":219}
},
"girl_sword_0069":
{
	"frame": {"x":200,"y":948,"w":197,"h":194},
	"rotated": false,
	"trimmed": true,
	"spriteSourceSize": {"x":10,"y":17,"w":197,"h":194},
	"sourceSize": {"w":207,"h":219}
},
"girl_sword_0072":
{
	"frame": {"x":399,"y":955,"w":197,"h":194},
	"rotated": false,
	"trimmed": true,
	"spriteSourceSize": {"x":10,"y":17,"w":197,"h":194},
	"sourceSize": {"w":207,"h":219}
},
"girl_sword_0075":
{
	"frame": {"x":598,"y":958,"w":197,"h":194},
	"rotated": false,
	"trimmed": true,
	"spriteSourceSize": {"x":10,"y":17,"w":197,"h":194},
	"sourceSize": {"w":207,"h":219}
},
"girl_sword_0078":
{
	"frame": {"x":614,"y":567,"w":197,"h":193},
	"rotated": false,
	"trimmed": true,
	"spriteSourceSize": {"x":10,"y":17,"w":197,"h":193},
	"sourceSize": {"w":207,"h":219}
},
"girl_sword_0081":
{
	"frame": {"x":208,"y":1151,"w":197,"h":195},
	"rotated": false,
	"trimmed": true,
	"spriteSourceSize": {"x":10,"y":16,"w":197,"h":195},
	"sourceSize": {"w":207,"h":219}
},
"girl_sword_0084":
{
	"frame": {"x":610,"y":1155,"w":198,"h":196},
	"rotated": false,
	"trimmed": true,
	"spriteSourceSize": {"x":9,"y":15,"w":198,"h":196},
	"sourceSize": {"w":207,"h":219}
},
"girl_sword_0087":
{
	"frame": {"x":407,"y":1154,"w":201,"h":195},
	"rotated": false,
	"trimmed": true,
	"spriteSourceSize": {"x":6,"y":16,"w":201,"h":195},
	"sourceSize": {"w":207,"h":219}
},
"girl_sword_0090":
{
	"frame": {"x":797,"y":959,"w":205,"h":194},
	"rotated": false,
	"trimmed": true,
	"spriteSourceSize": {"x":2,"y":16,"w":205,"h":194},
	"sourceSize": {"w":207,"h":219}
},
"girl_sword_0093":
{
	"frame": {"x":1,"y":1144,"w":205,"h":194},
	"rotated": false,
	"trimmed": true,
	"spriteSourceSize": {"x":2,"y":16,"w":205,"h":194},
	"sourceSize": {"w":207,"h":219}
},
"girl_sword_0096":
{
	"frame": {"x":407,"y":565,"w":205,"h":192},
	"rotated": false,
	"trimmed": true,
	"spriteSourceSize": {"x":2,"y":17,"w":205,"h":192},
	"sourceSize": {"w":207,"h":219}
},
"girl_sword_0099":
{
	"frame": {"x":200,"y":560,"w":205,"h":190},
	"rotated": false,
	"trimmed": true,
	"spriteSourceSize": {"x":2,"y":17,"w":205,"h":190},
	"sourceSize": {"w":207,"h":219}
},
"girl_sword_0100":
{
	"frame": {"x":797,"y":375,"w":205,"h":190},
	"rotated": false,
	"trimmed": true,
	"spriteSourceSize": {"x":2,"y":17,"w":205,"h":190},
	"sourceSize": {"w":207,"h":219}
}},
"meta": {
	"app": "https://www.codeandweb.com/texturepacker",
	"version": "1.0",
	"image": "icon_10_animation.png",
	"format": "RGBA8888",
	"size": {"w":1011,"h":1352},
	"scale": "1",
	"smartupdate": "$TexturePacker:SmartUpdate:e3acd6101027b07dba30565547fdafdb:f2428e7e356966afd95d74ea47e4f6c4:376de8e958d9eed44edd5956132056f9$"
}
}
