{"frames": {

"wild_small_0000":
{
	"frame": {"x":186,"y":782,"w":177,"h":184},
	"rotated": false,
	"trimmed": true,
	"spriteSourceSize": {"x":21,"y":25,"w":177,"h":184},
	"sourceSize": {"w":207,"h":219}
},
"wild_small_0003":
{
	"frame": {"x":1,"y":1,"w":201,"h":204},
	"rotated": false,
	"trimmed": true,
	"spriteSourceSize": {"x":6,"y":9,"w":201,"h":204},
	"sourceSize": {"w":207,"h":219}
},
"wild_small_0006":
{
	"frame": {"x":204,"y":1,"w":201,"h":204},
	"rotated": false,
	"trimmed": true,
	"spriteSourceSize": {"x":6,"y":9,"w":201,"h":204},
	"sourceSize": {"w":207,"h":219}
},
"wild_small_0009":
{
	"frame": {"x":407,"y":1,"w":201,"h":204},
	"rotated": false,
	"trimmed": true,
	"spriteSourceSize": {"x":6,"y":9,"w":201,"h":204},
	"sourceSize": {"w":207,"h":219}
},
"wild_small_0012":
{
	"frame": {"x":1,"y":207,"w":199,"h":201},
	"rotated": false,
	"trimmed": true,
	"spriteSourceSize": {"x":8,"y":11,"w":199,"h":201},
	"sourceSize": {"w":207,"h":219}
},
"wild_small_0015":
{
	"frame": {"x":403,"y":408,"w":183,"h":184},
	"rotated": false,
	"trimmed": true,
	"spriteSourceSize": {"x":22,"y":14,"w":183,"h":184},
	"sourceSize": {"w":207,"h":219}
},
"wild_small_0018":
{
	"frame": {"x":1,"y":410,"w":183,"h":184},
	"rotated": false,
	"trimmed": true,
	"spriteSourceSize": {"x":22,"y":14,"w":183,"h":184},
	"sourceSize": {"w":207,"h":219}
},
"wild_small_0021":
{
	"frame": {"x":186,"y":410,"w":183,"h":184},
	"rotated": false,
	"trimmed": true,
	"spriteSourceSize": {"x":22,"y":14,"w":183,"h":184},
	"sourceSize": {"w":207,"h":219}
},
"wild_small_0024":
{
	"frame": {"x":588,"y":408,"w":183,"h":184},
	"rotated": false,
	"trimmed": true,
	"spriteSourceSize": {"x":22,"y":14,"w":183,"h":184},
	"sourceSize": {"w":207,"h":219}
},
"wild_small_0027":
{
	"frame": {"x":603,"y":207,"w":183,"h":184},
	"rotated": false,
	"trimmed": true,
	"spriteSourceSize": {"x":22,"y":14,"w":183,"h":184},
	"sourceSize": {"w":207,"h":219}
},
"wild_small_0030":
{
	"frame": {"x":773,"y":393,"w":183,"h":184},
	"rotated": false,
	"trimmed": true,
	"spriteSourceSize": {"x":22,"y":14,"w":183,"h":184},
	"sourceSize": {"w":207,"h":219}
},
"wild_small_0033":
{
	"frame": {"x":788,"y":207,"w":183,"h":184},
	"rotated": false,
	"trimmed": true,
	"spriteSourceSize": {"x":22,"y":14,"w":183,"h":184},
	"sourceSize": {"w":207,"h":219}
},
"wild_small_0036":
{
	"frame": {"x":773,"y":579,"w":183,"h":184},
	"rotated": false,
	"trimmed": true,
	"spriteSourceSize": {"x":22,"y":14,"w":183,"h":184},
	"sourceSize": {"w":207,"h":219}
},
"wild_small_0039":
{
	"frame": {"x":371,"y":594,"w":183,"h":184},
	"rotated": false,
	"trimmed": true,
	"spriteSourceSize": {"x":22,"y":14,"w":183,"h":184},
	"sourceSize": {"w":207,"h":219}
},
"wild_small_0042":
{
	"frame": {"x":1,"y":596,"w":183,"h":184},
	"rotated": false,
	"trimmed": true,
	"spriteSourceSize": {"x":22,"y":14,"w":183,"h":184},
	"sourceSize": {"w":207,"h":219}
},
"wild_small_0045":
{
	"frame": {"x":186,"y":596,"w":183,"h":184},
	"rotated": false,
	"trimmed": true,
	"spriteSourceSize": {"x":22,"y":14,"w":183,"h":184},
	"sourceSize": {"w":207,"h":219}
},
"wild_small_0048":
{
	"frame": {"x":556,"y":594,"w":183,"h":184},
	"rotated": false,
	"trimmed": true,
	"spriteSourceSize": {"x":22,"y":14,"w":183,"h":184},
	"sourceSize": {"w":207,"h":219}
},
"wild_small_0051":
{
	"frame": {"x":741,"y":765,"w":183,"h":184},
	"rotated": false,
	"trimmed": true,
	"spriteSourceSize": {"x":22,"y":14,"w":183,"h":184},
	"sourceSize": {"w":207,"h":219}
},
"wild_small_0054":
{
	"frame": {"x":371,"y":780,"w":183,"h":184},
	"rotated": false,
	"trimmed": true,
	"spriteSourceSize": {"x":22,"y":14,"w":183,"h":184},
	"sourceSize": {"w":207,"h":219}
},
"wild_small_0057":
{
	"frame": {"x":556,"y":780,"w":183,"h":184},
	"rotated": false,
	"trimmed": true,
	"spriteSourceSize": {"x":22,"y":14,"w":183,"h":184},
	"sourceSize": {"w":207,"h":219}
},
"wild_small_0060":
{
	"frame": {"x":1,"y":782,"w":183,"h":184},
	"rotated": false,
	"trimmed": true,
	"spriteSourceSize": {"x":22,"y":14,"w":183,"h":184},
	"sourceSize": {"w":207,"h":219}
},
"wild_small_0063":
{
	"frame": {"x":610,"y":1,"w":201,"h":204},
	"rotated": false,
	"trimmed": true,
	"spriteSourceSize": {"x":6,"y":9,"w":201,"h":204},
	"sourceSize": {"w":207,"h":219}
},
"wild_small_0066":
{
	"frame": {"x":813,"y":1,"w":201,"h":204},
	"rotated": false,
	"trimmed": true,
	"spriteSourceSize": {"x":6,"y":9,"w":201,"h":204},
	"sourceSize": {"w":207,"h":219}
},
"wild_small_0069":
{
	"frame": {"x":202,"y":207,"w":199,"h":201},
	"rotated": false,
	"trimmed": true,
	"spriteSourceSize": {"x":8,"y":11,"w":199,"h":201},
	"sourceSize": {"w":207,"h":219}
},
"wild_small_0072":
{
	"frame": {"x":403,"y":207,"w":198,"h":199},
	"rotated": false,
	"trimmed": true,
	"spriteSourceSize": {"x":9,"y":12,"w":198,"h":199},
	"sourceSize": {"w":207,"h":219}
},
"wild_small_0074":
{
	"frame": {"x":186,"y":782,"w":177,"h":184},
	"rotated": false,
	"trimmed": true,
	"spriteSourceSize": {"x":21,"y":25,"w":177,"h":184},
	"sourceSize": {"w":207,"h":219}
}},
"meta": {
	"app": "https://www.codeandweb.com/texturepacker",
	"version": "1.0",
	"image": "icon_wild_1_animation.png",
	"format": "RGBA8888",
	"size": {"w":1015,"h":967},
	"scale": "1",
	"smartupdate": "$TexturePacker:SmartUpdate:68657c1eac76ad2fc3a811eab82c12bc:655c1b1ac7669407fee3d30999e6a43d:d963d84f7d31b0cd59136b397521b5b1$"
}
}
