{"frames": {

"cristal2_0000":
{
	"frame": {"x":361,"y":437,"w":173,"h":199},
	"rotated": false,
	"trimmed": true,
	"spriteSourceSize": {"x":23,"y":9,"w":173,"h":199},
	"sourceSize": {"w":207,"h":219}
},
"cristal2_0002":
{
	"frame": {"x":1,"y":437,"w":178,"h":207},
	"rotated": false,
	"trimmed": true,
	"spriteSourceSize": {"x":20,"y":1,"w":178,"h":207},
	"sourceSize": {"w":207,"h":219}
},
"cristal2_0004":
{
	"frame": {"x":596,"y":218,"w":195,"h":214},
	"rotated": false,
	"trimmed": true,
	"spriteSourceSize": {"x":11,"y":0,"w":195,"h":214},
	"sourceSize": {"w":207,"h":219}
},
"cristal2_0006":
{
	"frame": {"x":596,"y":1,"w":194,"h":215},
	"rotated": false,
	"trimmed": true,
	"spriteSourceSize": {"x":11,"y":0,"w":194,"h":215},
	"sourceSize": {"w":207,"h":219}
},
"cristal2_0008":
{
	"frame": {"x":1,"y":1,"w":198,"h":216},
	"rotated": false,
	"trimmed": true,
	"spriteSourceSize": {"x":9,"y":0,"w":198,"h":216},
	"sourceSize": {"w":207,"h":219}
},
"cristal2_0010":
{
	"frame": {"x":1,"y":219,"w":197,"h":216},
	"rotated": false,
	"trimmed": true,
	"spriteSourceSize": {"x":10,"y":0,"w":197,"h":216},
	"sourceSize": {"w":207,"h":219}
},
"cristal2_0012":
{
	"frame": {"x":200,"y":219,"w":196,"h":216},
	"rotated": false,
	"trimmed": true,
	"spriteSourceSize": {"x":10,"y":0,"w":196,"h":216},
	"sourceSize": {"w":207,"h":219}
},
"cristal2_0014":
{
	"frame": {"x":201,"y":1,"w":196,"h":215},
	"rotated": false,
	"trimmed": true,
	"spriteSourceSize": {"x":10,"y":0,"w":196,"h":215},
	"sourceSize": {"w":207,"h":219}
},
"cristal2_0016":
{
	"frame": {"x":398,"y":218,"w":196,"h":215},
	"rotated": false,
	"trimmed": true,
	"spriteSourceSize": {"x":10,"y":0,"w":196,"h":215},
	"sourceSize": {"w":207,"h":219}
},
"cristal2_0018":
{
	"frame": {"x":399,"y":1,"w":195,"h":215},
	"rotated": false,
	"trimmed": true,
	"spriteSourceSize": {"x":11,"y":0,"w":195,"h":215},
	"sourceSize": {"w":207,"h":219}
},
"cristal2_0020":
{
	"frame": {"x":596,"y":434,"w":194,"h":214},
	"rotated": false,
	"trimmed": true,
	"spriteSourceSize": {"x":11,"y":0,"w":194,"h":214},
	"sourceSize": {"w":207,"h":219}
},
"cristal2_0022":
{
	"frame": {"x":792,"y":434,"w":194,"h":214},
	"rotated": false,
	"trimmed": true,
	"spriteSourceSize": {"x":11,"y":0,"w":194,"h":214},
	"sourceSize": {"w":207,"h":219}
},
"cristal2_0024":
{
	"frame": {"x":792,"y":1,"w":194,"h":214},
	"rotated": false,
	"trimmed": true,
	"spriteSourceSize": {"x":11,"y":0,"w":194,"h":214},
	"sourceSize": {"w":207,"h":219}
},
"cristal2_0026":
{
	"frame": {"x":793,"y":217,"w":194,"h":214},
	"rotated": false,
	"trimmed": true,
	"spriteSourceSize": {"x":11,"y":0,"w":194,"h":214},
	"sourceSize": {"w":207,"h":219}
},
"cristal2_0028":
{
	"frame": {"x":988,"y":1,"w":194,"h":214},
	"rotated": false,
	"trimmed": true,
	"spriteSourceSize": {"x":11,"y":0,"w":194,"h":214},
	"sourceSize": {"w":207,"h":219}
},
"cristal2_0030":
{
	"frame": {"x":988,"y":433,"w":194,"h":214},
	"rotated": false,
	"trimmed": true,
	"spriteSourceSize": {"x":11,"y":0,"w":194,"h":214},
	"sourceSize": {"w":207,"h":219}
},
"cristal2_0032":
{
	"frame": {"x":989,"y":217,"w":194,"h":214},
	"rotated": false,
	"trimmed": true,
	"spriteSourceSize": {"x":11,"y":0,"w":194,"h":214},
	"sourceSize": {"w":207,"h":219}
},
"cristal2_0034":
{
	"frame": {"x":1184,"y":1,"w":194,"h":214},
	"rotated": false,
	"trimmed": true,
	"spriteSourceSize": {"x":11,"y":0,"w":194,"h":214},
	"sourceSize": {"w":207,"h":219}
},
"cristal2_0036":
{
	"frame": {"x":1184,"y":433,"w":194,"h":214},
	"rotated": false,
	"trimmed": true,
	"spriteSourceSize": {"x":11,"y":0,"w":194,"h":214},
	"sourceSize": {"w":207,"h":219}
},
"cristal2_0038":
{
	"frame": {"x":1185,"y":217,"w":194,"h":214},
	"rotated": false,
	"trimmed": true,
	"spriteSourceSize": {"x":11,"y":0,"w":194,"h":214},
	"sourceSize": {"w":207,"h":219}
},
"cristal2_0040":
{
	"frame": {"x":1380,"y":1,"w":194,"h":214},
	"rotated": false,
	"trimmed": true,
	"spriteSourceSize": {"x":11,"y":0,"w":194,"h":214},
	"sourceSize": {"w":207,"h":219}
},
"cristal2_0042":
{
	"frame": {"x":1380,"y":433,"w":194,"h":214},
	"rotated": false,
	"trimmed": true,
	"spriteSourceSize": {"x":11,"y":0,"w":194,"h":214},
	"sourceSize": {"w":207,"h":219}
},
"cristal2_0044":
{
	"frame": {"x":1381,"y":217,"w":194,"h":214},
	"rotated": false,
	"trimmed": true,
	"spriteSourceSize": {"x":11,"y":0,"w":194,"h":214},
	"sourceSize": {"w":207,"h":219}
},
"cristal2_0046":
{
	"frame": {"x":1576,"y":1,"w":194,"h":214},
	"rotated": false,
	"trimmed": true,
	"spriteSourceSize": {"x":11,"y":0,"w":194,"h":214},
	"sourceSize": {"w":207,"h":219}
},
"cristal2_0048":
{
	"frame": {"x":1576,"y":433,"w":194,"h":214},
	"rotated": false,
	"trimmed": true,
	"spriteSourceSize": {"x":11,"y":0,"w":194,"h":214},
	"sourceSize": {"w":207,"h":219}
},
"cristal2_0050":
{
	"frame": {"x":1577,"y":217,"w":194,"h":214},
	"rotated": false,
	"trimmed": true,
	"spriteSourceSize": {"x":11,"y":0,"w":194,"h":214},
	"sourceSize": {"w":207,"h":219}
},
"cristal2_0052":
{
	"frame": {"x":1772,"y":1,"w":194,"h":214},
	"rotated": false,
	"trimmed": true,
	"spriteSourceSize": {"x":11,"y":0,"w":194,"h":214},
	"sourceSize": {"w":207,"h":219}
},
"cristal2_0054":
{
	"frame": {"x":1772,"y":433,"w":194,"h":214},
	"rotated": false,
	"trimmed": true,
	"spriteSourceSize": {"x":11,"y":0,"w":194,"h":214},
	"sourceSize": {"w":207,"h":219}
},
"cristal2_0056":
{
	"frame": {"x":1773,"y":217,"w":194,"h":214},
	"rotated": false,
	"trimmed": true,
	"spriteSourceSize": {"x":11,"y":0,"w":194,"h":214},
	"sourceSize": {"w":207,"h":219}
},
"cristal2_0058":
{
	"frame": {"x":181,"y":437,"w":178,"h":205},
	"rotated": false,
	"trimmed": true,
	"spriteSourceSize": {"x":19,"y":3,"w":178,"h":205},
	"sourceSize": {"w":207,"h":219}
},
"cristal2_0060":
{
	"frame": {"x":361,"y":437,"w":173,"h":199},
	"rotated": false,
	"trimmed": true,
	"spriteSourceSize": {"x":23,"y":9,"w":173,"h":199},
	"sourceSize": {"w":207,"h":219}
}},
"meta": {
	"app": "https://www.codeandweb.com/texturepacker",
	"version": "1.0",
	"image": "icon_2_animation.png",
	"format": "RGBA8888",
	"size": {"w":1968,"h":649},
	"scale": "1",
	"smartupdate": "$TexturePacker:SmartUpdate:eab04dde493c7aaad5d0ca2cf5f055ba:aa47d0f28d5f011231972ab274bf787a:f573638f5ba21beb62c83cf8f0e76038$"
}
}
