{"frames": {

"10_0000":
{
	"frame": {"x":953,"y":1108,"w":182,"h":159},
	"rotated": false,
	"trimmed": true,
	"spriteSourceSize": {"x":47,"y":49,"w":182,"h":159},
	"sourceSize": {"w":275,"h":275}
},
"10_0001":
{
	"frame": {"x":1341,"y":1102,"w":182,"h":159},
	"rotated": false,
	"trimmed": true,
	"spriteSourceSize": {"x":47,"y":49,"w":182,"h":159},
	"sourceSize": {"w":275,"h":275}
},
"10_0002":
{
	"frame": {"x":1656,"y":784,"w":182,"h":159},
	"rotated": false,
	"trimmed": true,
	"spriteSourceSize": {"x":47,"y":49,"w":182,"h":159},
	"sourceSize": {"w":275,"h":275}
},
"10_0003":
{
	"frame": {"x":768,"y":1109,"w":183,"h":160},
	"rotated": false,
	"trimmed": true,
	"spriteSourceSize": {"x":46,"y":48,"w":183,"h":160},
	"sourceSize": {"w":275,"h":275}
},
"10_0004":
{
	"frame": {"x":581,"y":1109,"w":185,"h":162},
	"rotated": false,
	"trimmed": true,
	"spriteSourceSize": {"x":45,"y":47,"w":185,"h":162},
	"sourceSize": {"w":275,"h":275}
},
"10_0005":
{
	"frame": {"x":392,"y":1109,"w":187,"h":164},
	"rotated": false,
	"trimmed": true,
	"spriteSourceSize": {"x":44,"y":46,"w":187,"h":164},
	"sourceSize": {"w":275,"h":275}
},
"10_0006":
{
	"frame": {"x":199,"y":1109,"w":191,"h":167},
	"rotated": false,
	"trimmed": true,
	"spriteSourceSize": {"x":42,"y":44,"w":191,"h":167},
	"sourceSize": {"w":275,"h":275}
},
"10_0007":
{
	"frame": {"x":1,"y":1109,"w":196,"h":171},
	"rotated": false,
	"trimmed": true,
	"spriteSourceSize": {"x":40,"y":42,"w":196,"h":171},
	"sourceSize": {"w":275,"h":275}
},
"10_0008":
{
	"frame": {"x":1137,"y":1102,"w":202,"h":175},
	"rotated": false,
	"trimmed": true,
	"spriteSourceSize": {"x":37,"y":40,"w":202,"h":175},
	"sourceSize": {"w":275,"h":275}
},
"10_0009":
{
	"frame": {"x":1525,"y":1099,"w":212,"h":182},
	"rotated": false,
	"trimmed": true,
	"spriteSourceSize": {"x":33,"y":36,"w":212,"h":182},
	"sourceSize": {"w":275,"h":275}
},
"10_0010":
{
	"frame": {"x":1379,"y":829,"w":275,"h":268},
	"rotated": false,
	"trimmed": true,
	"spriteSourceSize": {"x":0,"y":4,"w":275,"h":268},
	"sourceSize": {"w":275,"h":275}
},
"10_0011":
{
	"frame": {"x":832,"y":554,"w":273,"h":275},
	"rotated": false,
	"trimmed": true,
	"spriteSourceSize": {"x":2,"y":0,"w":273,"h":275},
	"sourceSize": {"w":275,"h":275}
},
"10_0012":
{
	"frame": {"x":832,"y":831,"w":273,"h":275},
	"rotated": false,
	"trimmed": true,
	"spriteSourceSize": {"x":0,"y":0,"w":273,"h":275},
	"sourceSize": {"w":275,"h":275}
},
"10_0013":
{
	"frame": {"x":1,"y":1,"w":275,"h":275},
	"rotated": false,
	"trimmed": false,
	"spriteSourceSize": {"x":0,"y":0,"w":275,"h":275},
	"sourceSize": {"w":275,"h":275}
},
"10_0014":
{
	"frame": {"x":1507,"y":1,"w":275,"h":274},
	"rotated": false,
	"trimmed": true,
	"spriteSourceSize": {"x":0,"y":0,"w":275,"h":274},
	"sourceSize": {"w":275,"h":275}
},
"10_0015":
{
	"frame": {"x":1,"y":278,"w":275,"h":275},
	"rotated": false,
	"trimmed": false,
	"spriteSourceSize": {"x":0,"y":0,"w":275,"h":275},
	"sourceSize": {"w":275,"h":275}
},
"10_0016":
{
	"frame": {"x":1,"y":555,"w":275,"h":275},
	"rotated": false,
	"trimmed": false,
	"spriteSourceSize": {"x":0,"y":0,"w":275,"h":275},
	"sourceSize": {"w":275,"h":275}
},
"10_0017":
{
	"frame": {"x":1230,"y":278,"w":275,"h":273},
	"rotated": false,
	"trimmed": true,
	"spriteSourceSize": {"x":0,"y":0,"w":275,"h":273},
	"sourceSize": {"w":275,"h":275}
},
"10_0018":
{
	"frame": {"x":1107,"y":554,"w":275,"h":273},
	"rotated": false,
	"trimmed": true,
	"spriteSourceSize": {"x":0,"y":0,"w":275,"h":273},
	"sourceSize": {"w":275,"h":275}
},
"10_0019":
{
	"frame": {"x":1507,"y":277,"w":275,"h":274},
	"rotated": false,
	"trimmed": true,
	"spriteSourceSize": {"x":0,"y":0,"w":275,"h":274},
	"sourceSize": {"w":275,"h":275}
},
"10_0020":
{
	"frame": {"x":953,"y":278,"w":275,"h":274},
	"rotated": false,
	"trimmed": true,
	"spriteSourceSize": {"x":0,"y":0,"w":275,"h":274},
	"sourceSize": {"w":275,"h":275}
},
"10_0021":
{
	"frame": {"x":1,"y":832,"w":275,"h":275},
	"rotated": false,
	"trimmed": false,
	"spriteSourceSize": {"x":0,"y":0,"w":275,"h":275},
	"sourceSize": {"w":275,"h":275}
},
"10_0022":
{
	"frame": {"x":278,"y":1,"w":275,"h":275},
	"rotated": false,
	"trimmed": false,
	"spriteSourceSize": {"x":0,"y":0,"w":275,"h":275},
	"sourceSize": {"w":275,"h":275}
},
"10_0023":
{
	"frame": {"x":278,"y":278,"w":275,"h":275},
	"rotated": false,
	"trimmed": false,
	"spriteSourceSize": {"x":0,"y":0,"w":275,"h":275},
	"sourceSize": {"w":275,"h":275}
},
"10_0024":
{
	"frame": {"x":278,"y":555,"w":275,"h":275},
	"rotated": false,
	"trimmed": false,
	"spriteSourceSize": {"x":0,"y":0,"w":275,"h":275},
	"sourceSize": {"w":275,"h":275}
},
"10_0025":
{
	"frame": {"x":278,"y":832,"w":275,"h":275},
	"rotated": false,
	"trimmed": false,
	"spriteSourceSize": {"x":0,"y":0,"w":275,"h":275},
	"sourceSize": {"w":275,"h":275}
},
"10_0026":
{
	"frame": {"x":555,"y":1,"w":275,"h":275},
	"rotated": false,
	"trimmed": false,
	"spriteSourceSize": {"x":0,"y":0,"w":275,"h":275},
	"sourceSize": {"w":275,"h":275}
},
"10_0027":
{
	"frame": {"x":555,"y":278,"w":275,"h":275},
	"rotated": false,
	"trimmed": false,
	"spriteSourceSize": {"x":0,"y":0,"w":275,"h":275},
	"sourceSize": {"w":275,"h":275}
},
"10_0028":
{
	"frame": {"x":555,"y":555,"w":275,"h":275},
	"rotated": false,
	"trimmed": false,
	"spriteSourceSize": {"x":0,"y":0,"w":275,"h":275},
	"sourceSize": {"w":275,"h":275}
},
"10_0029":
{
	"frame": {"x":555,"y":832,"w":275,"h":275},
	"rotated": false,
	"trimmed": false,
	"spriteSourceSize": {"x":0,"y":0,"w":275,"h":275},
	"sourceSize": {"w":275,"h":275}
},
"10_0030":
{
	"frame": {"x":953,"y":1,"w":275,"h":275},
	"rotated": false,
	"trimmed": false,
	"spriteSourceSize": {"x":0,"y":0,"w":275,"h":275},
	"sourceSize": {"w":275,"h":275}
},
"10_0031":
{
	"frame": {"x":1230,"y":1,"w":275,"h":275},
	"rotated": false,
	"trimmed": false,
	"spriteSourceSize": {"x":0,"y":0,"w":275,"h":275},
	"sourceSize": {"w":275,"h":275}
},
"10_0032":
{
	"frame": {"x":1107,"y":829,"w":270,"h":271},
	"rotated": false,
	"trimmed": true,
	"spriteSourceSize": {"x":3,"y":0,"w":270,"h":271},
	"sourceSize": {"w":275,"h":275}
},
"10_0033":
{
	"frame": {"x":1384,"y":553,"w":257,"h":263},
	"rotated": false,
	"trimmed": true,
	"spriteSourceSize": {"x":8,"y":3,"w":257,"h":263},
	"sourceSize": {"w":275,"h":275}
},
"10_0034":
{
	"frame": {"x":1643,"y":553,"w":216,"h":229},
	"rotated": false,
	"trimmed": true,
	"spriteSourceSize": {"x":36,"y":28,"w":216,"h":229},
	"sourceSize": {"w":275,"h":275}
}},
"meta": {
	"app": "http://www.codeandweb.com/texturepacker",
	"version": "1.0",
	"image": "10_animation.png",
	"format": "RGBA8888",
	"size": {"w":1860,"h":1282},
	"scale": "1",
	"smartupdate": "$TexturePacker:SmartUpdate:1f971a7e88db3486287212abedc020a6:af651afc0b5095ec9bba658cda636124:1f579cfbcf962819ccad40bcb7412243$"
}
}
