{"frames": {

"A_0000":
{
	"frame": {"x":1088,"y":1029,"w":165,"h":153},
	"rotated": false,
	"trimmed": true,
	"spriteSourceSize": {"x":54,"y":58,"w":165,"h":153},
	"sourceSize": {"w":275,"h":275}
},
"A_0001":
{
	"frame": {"x":1839,"y":997,"w":165,"h":153},
	"rotated": false,
	"trimmed": true,
	"spriteSourceSize": {"x":54,"y":58,"w":165,"h":153},
	"sourceSize": {"w":275,"h":275}
},
"A_0002":
{
	"frame": {"x":1844,"y":832,"w":165,"h":153},
	"rotated": false,
	"trimmed": true,
	"spriteSourceSize": {"x":54,"y":58,"w":165,"h":153},
	"sourceSize": {"w":275,"h":275}
},
"A_0003":
{
	"frame": {"x":1292,"y":1018,"w":166,"h":154},
	"rotated": false,
	"trimmed": true,
	"spriteSourceSize": {"x":54,"y":57,"w":166,"h":154},
	"sourceSize": {"w":275,"h":275}
},
"A_0004":
{
	"frame": {"x":1484,"y":1005,"w":167,"h":155},
	"rotated": false,
	"trimmed": true,
	"spriteSourceSize": {"x":53,"y":57,"w":167,"h":155},
	"sourceSize": {"w":275,"h":275}
},
"A_0005":
{
	"frame": {"x":1667,"y":997,"w":170,"h":158},
	"rotated": false,
	"trimmed": true,
	"spriteSourceSize": {"x":52,"y":55,"w":170,"h":158},
	"sourceSize": {"w":275,"h":275}
},
"A_0006":
{
	"frame": {"x":1667,"y":832,"w":175,"h":163},
	"rotated": false,
	"trimmed": true,
	"spriteSourceSize": {"x":49,"y":53,"w":175,"h":163},
	"sourceSize": {"w":275,"h":275}
},
"A_0007":
{
	"frame": {"x":1484,"y":832,"w":181,"h":171},
	"rotated": false,
	"trimmed": true,
	"spriteSourceSize": {"x":46,"y":47,"w":181,"h":171},
	"sourceSize": {"w":275,"h":275}
},
"A_0008":
{
	"frame": {"x":1292,"y":832,"w":190,"h":184},
	"rotated": false,
	"trimmed": true,
	"spriteSourceSize": {"x":42,"y":38,"w":190,"h":184},
	"sourceSize": {"w":275,"h":275}
},
"A_0009":
{
	"frame": {"x":1088,"y":832,"w":202,"h":195},
	"rotated": false,
	"trimmed": true,
	"spriteSourceSize": {"x":36,"y":32,"w":202,"h":195},
	"sourceSize": {"w":275,"h":275}
},
"A_0010":
{
	"frame": {"x":278,"y":832,"w":275,"h":268},
	"rotated": false,
	"trimmed": true,
	"spriteSourceSize": {"x":0,"y":4,"w":275,"h":268},
	"sourceSize": {"w":275,"h":275}
},
"A_0011":
{
	"frame": {"x":1,"y":1,"w":275,"h":275},
	"rotated": false,
	"trimmed": false,
	"spriteSourceSize": {"x":0,"y":0,"w":275,"h":275},
	"sourceSize": {"w":275,"h":275}
},
"A_0012":
{
	"frame": {"x":278,"y":1,"w":275,"h":275},
	"rotated": false,
	"trimmed": false,
	"spriteSourceSize": {"x":0,"y":0,"w":275,"h":275},
	"sourceSize": {"w":275,"h":275}
},
"A_0013":
{
	"frame": {"x":555,"y":1,"w":275,"h":275},
	"rotated": false,
	"trimmed": false,
	"spriteSourceSize": {"x":0,"y":0,"w":275,"h":275},
	"sourceSize": {"w":275,"h":275}
},
"A_0014":
{
	"frame": {"x":832,"y":1,"w":275,"h":275},
	"rotated": false,
	"trimmed": false,
	"spriteSourceSize": {"x":0,"y":0,"w":275,"h":275},
	"sourceSize": {"w":275,"h":275}
},
"A_0015":
{
	"frame": {"x":1109,"y":1,"w":275,"h":275},
	"rotated": false,
	"trimmed": false,
	"spriteSourceSize": {"x":0,"y":0,"w":275,"h":275},
	"sourceSize": {"w":275,"h":275}
},
"A_0016":
{
	"frame": {"x":1386,"y":1,"w":275,"h":275},
	"rotated": false,
	"trimmed": false,
	"spriteSourceSize": {"x":0,"y":0,"w":275,"h":275},
	"sourceSize": {"w":275,"h":275}
},
"A_0017":
{
	"frame": {"x":1663,"y":1,"w":275,"h":275},
	"rotated": false,
	"trimmed": false,
	"spriteSourceSize": {"x":0,"y":0,"w":275,"h":275},
	"sourceSize": {"w":275,"h":275}
},
"A_0018":
{
	"frame": {"x":1,"y":278,"w":275,"h":275},
	"rotated": false,
	"trimmed": false,
	"spriteSourceSize": {"x":0,"y":0,"w":275,"h":275},
	"sourceSize": {"w":275,"h":275}
},
"A_0019":
{
	"frame": {"x":278,"y":278,"w":275,"h":275},
	"rotated": false,
	"trimmed": false,
	"spriteSourceSize": {"x":0,"y":0,"w":275,"h":275},
	"sourceSize": {"w":275,"h":275}
},
"A_0020":
{
	"frame": {"x":555,"y":278,"w":275,"h":275},
	"rotated": false,
	"trimmed": false,
	"spriteSourceSize": {"x":0,"y":0,"w":275,"h":275},
	"sourceSize": {"w":275,"h":275}
},
"A_0021":
{
	"frame": {"x":832,"y":278,"w":275,"h":275},
	"rotated": false,
	"trimmed": false,
	"spriteSourceSize": {"x":0,"y":0,"w":275,"h":275},
	"sourceSize": {"w":275,"h":275}
},
"A_0022":
{
	"frame": {"x":1109,"y":278,"w":275,"h":275},
	"rotated": false,
	"trimmed": false,
	"spriteSourceSize": {"x":0,"y":0,"w":275,"h":275},
	"sourceSize": {"w":275,"h":275}
},
"A_0023":
{
	"frame": {"x":1386,"y":278,"w":275,"h":275},
	"rotated": false,
	"trimmed": false,
	"spriteSourceSize": {"x":0,"y":0,"w":275,"h":275},
	"sourceSize": {"w":275,"h":275}
},
"A_0024":
{
	"frame": {"x":1663,"y":278,"w":275,"h":275},
	"rotated": false,
	"trimmed": false,
	"spriteSourceSize": {"x":0,"y":0,"w":275,"h":275},
	"sourceSize": {"w":275,"h":275}
},
"A_0025":
{
	"frame": {"x":1,"y":555,"w":275,"h":275},
	"rotated": false,
	"trimmed": false,
	"spriteSourceSize": {"x":0,"y":0,"w":275,"h":275},
	"sourceSize": {"w":275,"h":275}
},
"A_0026":
{
	"frame": {"x":278,"y":555,"w":275,"h":275},
	"rotated": false,
	"trimmed": false,
	"spriteSourceSize": {"x":0,"y":0,"w":275,"h":275},
	"sourceSize": {"w":275,"h":275}
},
"A_0027":
{
	"frame": {"x":555,"y":555,"w":275,"h":275},
	"rotated": false,
	"trimmed": false,
	"spriteSourceSize": {"x":0,"y":0,"w":275,"h":275},
	"sourceSize": {"w":275,"h":275}
},
"A_0028":
{
	"frame": {"x":832,"y":555,"w":275,"h":275},
	"rotated": false,
	"trimmed": false,
	"spriteSourceSize": {"x":0,"y":0,"w":275,"h":275},
	"sourceSize": {"w":275,"h":275}
},
"A_0029":
{
	"frame": {"x":1109,"y":555,"w":275,"h":275},
	"rotated": false,
	"trimmed": false,
	"spriteSourceSize": {"x":0,"y":0,"w":275,"h":275},
	"sourceSize": {"w":275,"h":275}
},
"A_0030":
{
	"frame": {"x":1386,"y":555,"w":275,"h":275},
	"rotated": false,
	"trimmed": false,
	"spriteSourceSize": {"x":0,"y":0,"w":275,"h":275},
	"sourceSize": {"w":275,"h":275}
},
"A_0031":
{
	"frame": {"x":1663,"y":555,"w":275,"h":275},
	"rotated": false,
	"trimmed": false,
	"spriteSourceSize": {"x":0,"y":0,"w":275,"h":275},
	"sourceSize": {"w":275,"h":275}
},
"A_0032":
{
	"frame": {"x":1,"y":832,"w":275,"h":275},
	"rotated": false,
	"trimmed": false,
	"spriteSourceSize": {"x":0,"y":0,"w":275,"h":275},
	"sourceSize": {"w":275,"h":275}
},
"A_0033":
{
	"frame": {"x":555,"y":832,"w":271,"h":274},
	"rotated": false,
	"trimmed": true,
	"spriteSourceSize": {"x":4,"y":1,"w":271,"h":274},
	"sourceSize": {"w":275,"h":275}
},
"A_0034":
{
	"frame": {"x":828,"y":832,"w":258,"h":257},
	"rotated": false,
	"trimmed": true,
	"spriteSourceSize": {"x":9,"y":8,"w":258,"h":257},
	"sourceSize": {"w":275,"h":275}
}},
"meta": {
	"app": "http://www.codeandweb.com/texturepacker",
	"version": "1.0",
	"image": "A_animation.png",
	"format": "RGBA8888",
	"size": {"w":2010,"h":1183},
	"scale": "1",
	"smartupdate": "$TexturePacker:SmartUpdate:e3850df7abfce1b0c1a83d14f465877b:ffdb9a006b150d79c6af136d87204953:b5d91e264a79ad8e2cf3e1858a4a0e60$"
}
}
