{"frames": {

"Bow_0000":
{
	"frame": {"x":1,"y":1,"w":197,"h":197},
	"rotated": false,
	"trimmed": false,
	"spriteSourceSize": {"x":0,"y":0,"w":197,"h":197},
	"sourceSize": {"w":197,"h":197}
},
"Bow_0001":
{
	"frame": {"x":200,"y":1,"w":197,"h":197},
	"rotated": false,
	"trimmed": false,
	"spriteSourceSize": {"x":0,"y":0,"w":197,"h":197},
	"sourceSize": {"w":197,"h":197}
},
"Bow_0002":
{
	"frame": {"x":399,"y":1,"w":197,"h":197},
	"rotated": false,
	"trimmed": false,
	"spriteSourceSize": {"x":0,"y":0,"w":197,"h":197},
	"sourceSize": {"w":197,"h":197}
},
"Bow_0003":
{
	"frame": {"x":598,"y":1,"w":197,"h":197},
	"rotated": false,
	"trimmed": false,
	"spriteSourceSize": {"x":0,"y":0,"w":197,"h":197},
	"sourceSize": {"w":197,"h":197}
},
"Bow_0004":
{
	"frame": {"x":797,"y":1,"w":197,"h":197},
	"rotated": false,
	"trimmed": false,
	"spriteSourceSize": {"x":0,"y":0,"w":197,"h":197},
	"sourceSize": {"w":197,"h":197}
},
"Bow_0005":
{
	"frame": {"x":996,"y":1,"w":197,"h":197},
	"rotated": false,
	"trimmed": false,
	"spriteSourceSize": {"x":0,"y":0,"w":197,"h":197},
	"sourceSize": {"w":197,"h":197}
},
"Bow_0006":
{
	"frame": {"x":1195,"y":1,"w":197,"h":197},
	"rotated": false,
	"trimmed": false,
	"spriteSourceSize": {"x":0,"y":0,"w":197,"h":197},
	"sourceSize": {"w":197,"h":197}
},
"Bow_0007":
{
	"frame": {"x":1394,"y":1,"w":197,"h":197},
	"rotated": false,
	"trimmed": false,
	"spriteSourceSize": {"x":0,"y":0,"w":197,"h":197},
	"sourceSize": {"w":197,"h":197}
},
"Bow_0008":
{
	"frame": {"x":1593,"y":1,"w":197,"h":197},
	"rotated": false,
	"trimmed": false,
	"spriteSourceSize": {"x":0,"y":0,"w":197,"h":197},
	"sourceSize": {"w":197,"h":197}
},
"Bow_0009":
{
	"frame": {"x":1792,"y":1,"w":197,"h":197},
	"rotated": false,
	"trimmed": false,
	"spriteSourceSize": {"x":0,"y":0,"w":197,"h":197},
	"sourceSize": {"w":197,"h":197}
},
"Bow_0010":
{
	"frame": {"x":1,"y":200,"w":197,"h":197},
	"rotated": false,
	"trimmed": false,
	"spriteSourceSize": {"x":0,"y":0,"w":197,"h":197},
	"sourceSize": {"w":197,"h":197}
},
"Bow_0011":
{
	"frame": {"x":200,"y":200,"w":197,"h":197},
	"rotated": false,
	"trimmed": false,
	"spriteSourceSize": {"x":0,"y":0,"w":197,"h":197},
	"sourceSize": {"w":197,"h":197}
},
"Bow_0012":
{
	"frame": {"x":399,"y":200,"w":197,"h":197},
	"rotated": false,
	"trimmed": false,
	"spriteSourceSize": {"x":0,"y":0,"w":197,"h":197},
	"sourceSize": {"w":197,"h":197}
},
"Bow_0013":
{
	"frame": {"x":598,"y":200,"w":197,"h":197},
	"rotated": false,
	"trimmed": false,
	"spriteSourceSize": {"x":0,"y":0,"w":197,"h":197},
	"sourceSize": {"w":197,"h":197}
},
"Bow_0014":
{
	"frame": {"x":797,"y":200,"w":197,"h":197},
	"rotated": false,
	"trimmed": false,
	"spriteSourceSize": {"x":0,"y":0,"w":197,"h":197},
	"sourceSize": {"w":197,"h":197}
},
"Bow_0015":
{
	"frame": {"x":996,"y":200,"w":197,"h":197},
	"rotated": false,
	"trimmed": false,
	"spriteSourceSize": {"x":0,"y":0,"w":197,"h":197},
	"sourceSize": {"w":197,"h":197}
},
"Bow_0016":
{
	"frame": {"x":1195,"y":200,"w":197,"h":197},
	"rotated": false,
	"trimmed": false,
	"spriteSourceSize": {"x":0,"y":0,"w":197,"h":197},
	"sourceSize": {"w":197,"h":197}
},
"Bow_0017":
{
	"frame": {"x":1394,"y":200,"w":197,"h":197},
	"rotated": false,
	"trimmed": false,
	"spriteSourceSize": {"x":0,"y":0,"w":197,"h":197},
	"sourceSize": {"w":197,"h":197}
},
"Bow_0018":
{
	"frame": {"x":1593,"y":200,"w":197,"h":197},
	"rotated": false,
	"trimmed": false,
	"spriteSourceSize": {"x":0,"y":0,"w":197,"h":197},
	"sourceSize": {"w":197,"h":197}
},
"Bow_0019":
{
	"frame": {"x":1792,"y":200,"w":197,"h":197},
	"rotated": false,
	"trimmed": false,
	"spriteSourceSize": {"x":0,"y":0,"w":197,"h":197},
	"sourceSize": {"w":197,"h":197}
},
"Bow_0020":
{
	"frame": {"x":1,"y":399,"w":197,"h":197},
	"rotated": false,
	"trimmed": false,
	"spriteSourceSize": {"x":0,"y":0,"w":197,"h":197},
	"sourceSize": {"w":197,"h":197}
},
"Bow_0021":
{
	"frame": {"x":200,"y":399,"w":197,"h":197},
	"rotated": false,
	"trimmed": false,
	"spriteSourceSize": {"x":0,"y":0,"w":197,"h":197},
	"sourceSize": {"w":197,"h":197}
},
"Bow_0022":
{
	"frame": {"x":399,"y":399,"w":197,"h":197},
	"rotated": false,
	"trimmed": false,
	"spriteSourceSize": {"x":0,"y":0,"w":197,"h":197},
	"sourceSize": {"w":197,"h":197}
},
"Bow_0023":
{
	"frame": {"x":598,"y":399,"w":197,"h":197},
	"rotated": false,
	"trimmed": false,
	"spriteSourceSize": {"x":0,"y":0,"w":197,"h":197},
	"sourceSize": {"w":197,"h":197}
},
"Bow_0024":
{
	"frame": {"x":797,"y":399,"w":197,"h":197},
	"rotated": false,
	"trimmed": false,
	"spriteSourceSize": {"x":0,"y":0,"w":197,"h":197},
	"sourceSize": {"w":197,"h":197}
},
"Bow_0025":
{
	"frame": {"x":996,"y":399,"w":197,"h":197},
	"rotated": false,
	"trimmed": false,
	"spriteSourceSize": {"x":0,"y":0,"w":197,"h":197},
	"sourceSize": {"w":197,"h":197}
},
"Bow_0026":
{
	"frame": {"x":1195,"y":399,"w":197,"h":197},
	"rotated": false,
	"trimmed": false,
	"spriteSourceSize": {"x":0,"y":0,"w":197,"h":197},
	"sourceSize": {"w":197,"h":197}
},
"Bow_0027":
{
	"frame": {"x":1394,"y":399,"w":197,"h":197},
	"rotated": false,
	"trimmed": false,
	"spriteSourceSize": {"x":0,"y":0,"w":197,"h":197},
	"sourceSize": {"w":197,"h":197}
},
"Bow_0028":
{
	"frame": {"x":1593,"y":399,"w":197,"h":197},
	"rotated": false,
	"trimmed": false,
	"spriteSourceSize": {"x":0,"y":0,"w":197,"h":197},
	"sourceSize": {"w":197,"h":197}
},
"Bow_0029":
{
	"frame": {"x":1792,"y":399,"w":197,"h":197},
	"rotated": false,
	"trimmed": false,
	"spriteSourceSize": {"x":0,"y":0,"w":197,"h":197},
	"sourceSize": {"w":197,"h":197}
},
"Bow_0030":
{
	"frame": {"x":1,"y":598,"w":197,"h":197},
	"rotated": false,
	"trimmed": false,
	"spriteSourceSize": {"x":0,"y":0,"w":197,"h":197},
	"sourceSize": {"w":197,"h":197}
},
"Bow_0031":
{
	"frame": {"x":200,"y":598,"w":197,"h":197},
	"rotated": false,
	"trimmed": false,
	"spriteSourceSize": {"x":0,"y":0,"w":197,"h":197},
	"sourceSize": {"w":197,"h":197}
},
"Bow_0032":
{
	"frame": {"x":399,"y":598,"w":197,"h":197},
	"rotated": false,
	"trimmed": false,
	"spriteSourceSize": {"x":0,"y":0,"w":197,"h":197},
	"sourceSize": {"w":197,"h":197}
},
"Bow_0033":
{
	"frame": {"x":598,"y":598,"w":197,"h":197},
	"rotated": false,
	"trimmed": false,
	"spriteSourceSize": {"x":0,"y":0,"w":197,"h":197},
	"sourceSize": {"w":197,"h":197}
},
"Bow_0034":
{
	"frame": {"x":797,"y":598,"w":197,"h":197},
	"rotated": false,
	"trimmed": false,
	"spriteSourceSize": {"x":0,"y":0,"w":197,"h":197},
	"sourceSize": {"w":197,"h":197}
},
"Bow_0035":
{
	"frame": {"x":996,"y":598,"w":197,"h":197},
	"rotated": false,
	"trimmed": false,
	"spriteSourceSize": {"x":0,"y":0,"w":197,"h":197},
	"sourceSize": {"w":197,"h":197}
},
"Bow_0036":
{
	"frame": {"x":1195,"y":598,"w":197,"h":197},
	"rotated": false,
	"trimmed": false,
	"spriteSourceSize": {"x":0,"y":0,"w":197,"h":197},
	"sourceSize": {"w":197,"h":197}
},
"Bow_0037":
{
	"frame": {"x":1,"y":1,"w":197,"h":197},
	"rotated": false,
	"trimmed": false,
	"spriteSourceSize": {"x":0,"y":0,"w":197,"h":197},
	"sourceSize": {"w":197,"h":197}
}},
"meta": {
	"app": "http://www.codeandweb.com/texturepacker",
	"version": "1.0",
	"image": "Bow_animation.png",
	"format": "RGBA8888",
	"size": {"w":1990,"h":796},
	"scale": "1",
	"smartupdate": "$TexturePacker:SmartUpdate:9ceb5a2d54b9bdd0766d09d5f22a2530:fcbdf0e506e179d2f404e7d6910958f7:81fb01f00e92a841af90569490ef28ec$"
}
}
