{"frames": {

"status/guilty":
{
	"frame": {"x":187,"y":1,"w":121,"h":52},
	"rotated": false,
	"trimmed": false,
	"spriteSourceSize": {"x":0,"y":0,"w":121,"h":52},
	"sourceSize": {"w":121,"h":52}
},
"status/not_guilty":
{
	"frame": {"x":1,"y":1,"w":184,"h":52},
	"rotated": false,
	"trimmed": false,
	"spriteSourceSize": {"x":0,"y":0,"w":184,"h":52},
	"sourceSize": {"w":184,"h":52}
}},
"meta": {
	"app": "http://www.codeandweb.com/texturepacker",
	"version": "1.0",
	"image": "status.png",
	"format": "RGBA8888",
	"size": {"w":309,"h":54},
	"scale": "1",
	"smartupdate": "$TexturePacker:SmartUpdate:8ef434386f360e3d29c8d048b7ecec1a:09c17614668a2f5bd71c6e3089be599e:a2b414ac1c7d2d62f65e10b983d9098b$"
}
}
