{"frames": {

"intrigue/ramka_big_0000":
{
	"frame": {"x":1,"y":1,"w":173,"h":346},
	"rotated": false,
	"trimmed": false,
	"spriteSourceSize": {"x":0,"y":0,"w":173,"h":346},
	"sourceSize": {"w":173,"h":346}
},
"intrigue/ramka_big_0002":
{
	"frame": {"x":1,"y":349,"w":173,"h":346},
	"rotated": false,
	"trimmed": false,
	"spriteSourceSize": {"x":0,"y":0,"w":173,"h":346},
	"sourceSize": {"w":173,"h":346}
},
"intrigue/ramka_big_0004":
{
	"frame": {"x":1,"y":697,"w":173,"h":346},
	"rotated": false,
	"trimmed": false,
	"spriteSourceSize": {"x":0,"y":0,"w":173,"h":346},
	"sourceSize": {"w":173,"h":346}
},
"intrigue/ramka_big_0006":
{
	"frame": {"x":1,"y":1045,"w":173,"h":346},
	"rotated": false,
	"trimmed": false,
	"spriteSourceSize": {"x":0,"y":0,"w":173,"h":346},
	"sourceSize": {"w":173,"h":346}
},
"intrigue/ramka_big_0008":
{
	"frame": {"x":1,"y":1393,"w":173,"h":346},
	"rotated": false,
	"trimmed": false,
	"spriteSourceSize": {"x":0,"y":0,"w":173,"h":346},
	"sourceSize": {"w":173,"h":346}
},
"intrigue/ramka_big_0010":
{
	"frame": {"x":176,"y":1,"w":173,"h":346},
	"rotated": false,
	"trimmed": false,
	"spriteSourceSize": {"x":0,"y":0,"w":173,"h":346},
	"sourceSize": {"w":173,"h":346}
},
"intrigue/ramka_big_0012":
{
	"frame": {"x":176,"y":349,"w":173,"h":346},
	"rotated": false,
	"trimmed": false,
	"spriteSourceSize": {"x":0,"y":0,"w":173,"h":346},
	"sourceSize": {"w":173,"h":346}
},
"intrigue/ramka_big_0014":
{
	"frame": {"x":176,"y":697,"w":173,"h":346},
	"rotated": false,
	"trimmed": false,
	"spriteSourceSize": {"x":0,"y":0,"w":173,"h":346},
	"sourceSize": {"w":173,"h":346}
},
"intrigue/ramka_big_0016":
{
	"frame": {"x":176,"y":1045,"w":173,"h":346},
	"rotated": false,
	"trimmed": false,
	"spriteSourceSize": {"x":0,"y":0,"w":173,"h":346},
	"sourceSize": {"w":173,"h":346}
},
"intrigue/ramka_big_0018":
{
	"frame": {"x":176,"y":1393,"w":173,"h":346},
	"rotated": false,
	"trimmed": false,
	"spriteSourceSize": {"x":0,"y":0,"w":173,"h":346},
	"sourceSize": {"w":173,"h":346}
},
"intrigue/ramka_big_0020":
{
	"frame": {"x":351,"y":1,"w":173,"h":346},
	"rotated": false,
	"trimmed": false,
	"spriteSourceSize": {"x":0,"y":0,"w":173,"h":346},
	"sourceSize": {"w":173,"h":346}
},
"intrigue/ramka_big_0022":
{
	"frame": {"x":351,"y":349,"w":173,"h":346},
	"rotated": false,
	"trimmed": false,
	"spriteSourceSize": {"x":0,"y":0,"w":173,"h":346},
	"sourceSize": {"w":173,"h":346}
},
"intrigue/ramka_big_0024":
{
	"frame": {"x":351,"y":697,"w":173,"h":346},
	"rotated": false,
	"trimmed": false,
	"spriteSourceSize": {"x":0,"y":0,"w":173,"h":346},
	"sourceSize": {"w":173,"h":346}
},
"intrigue/ramka_big_0026":
{
	"frame": {"x":351,"y":1045,"w":173,"h":346},
	"rotated": false,
	"trimmed": false,
	"spriteSourceSize": {"x":0,"y":0,"w":173,"h":346},
	"sourceSize": {"w":173,"h":346}
},
"intrigue/ramka_big_0028":
{
	"frame": {"x":351,"y":1393,"w":173,"h":346},
	"rotated": false,
	"trimmed": false,
	"spriteSourceSize": {"x":0,"y":0,"w":173,"h":346},
	"sourceSize": {"w":173,"h":346}
},
"intrigue/ramka_big_0030":
{
	"frame": {"x":526,"y":1,"w":173,"h":346},
	"rotated": false,
	"trimmed": false,
	"spriteSourceSize": {"x":0,"y":0,"w":173,"h":346},
	"sourceSize": {"w":173,"h":346}
},
"intrigue/ramka_big_0032":
{
	"frame": {"x":526,"y":349,"w":173,"h":346},
	"rotated": false,
	"trimmed": false,
	"spriteSourceSize": {"x":0,"y":0,"w":173,"h":346},
	"sourceSize": {"w":173,"h":346}
},
"intrigue/ramka_big_0034":
{
	"frame": {"x":526,"y":697,"w":173,"h":346},
	"rotated": false,
	"trimmed": false,
	"spriteSourceSize": {"x":0,"y":0,"w":173,"h":346},
	"sourceSize": {"w":173,"h":346}
},
"intrigue/ramka_big_0036":
{
	"frame": {"x":526,"y":1045,"w":173,"h":346},
	"rotated": false,
	"trimmed": false,
	"spriteSourceSize": {"x":0,"y":0,"w":173,"h":346},
	"sourceSize": {"w":173,"h":346}
},
"intrigue/ramka_big_0038":
{
	"frame": {"x":526,"y":1393,"w":173,"h":346},
	"rotated": false,
	"trimmed": false,
	"spriteSourceSize": {"x":0,"y":0,"w":173,"h":346},
	"sourceSize": {"w":173,"h":346}
},
"intrigue/ramka_big_0040":
{
	"frame": {"x":701,"y":1,"w":173,"h":346},
	"rotated": false,
	"trimmed": false,
	"spriteSourceSize": {"x":0,"y":0,"w":173,"h":346},
	"sourceSize": {"w":173,"h":346}
},
"intrigue/ramka_big_0042":
{
	"frame": {"x":701,"y":349,"w":173,"h":346},
	"rotated": false,
	"trimmed": false,
	"spriteSourceSize": {"x":0,"y":0,"w":173,"h":346},
	"sourceSize": {"w":173,"h":346}
},
"intrigue/ramka_big_0044":
{
	"frame": {"x":701,"y":697,"w":173,"h":346},
	"rotated": false,
	"trimmed": false,
	"spriteSourceSize": {"x":0,"y":0,"w":173,"h":346},
	"sourceSize": {"w":173,"h":346}
},
"intrigue/ramka_big_0046":
{
	"frame": {"x":701,"y":1045,"w":173,"h":346},
	"rotated": false,
	"trimmed": false,
	"spriteSourceSize": {"x":0,"y":0,"w":173,"h":346},
	"sourceSize": {"w":173,"h":346}
},
"intrigue/ramka_big_0048":
{
	"frame": {"x":701,"y":1393,"w":173,"h":346},
	"rotated": false,
	"trimmed": false,
	"spriteSourceSize": {"x":0,"y":0,"w":173,"h":346},
	"sourceSize": {"w":173,"h":346}
},
"intrigue/ramka_big_0050":
{
	"frame": {"x":876,"y":1,"w":173,"h":346},
	"rotated": false,
	"trimmed": false,
	"spriteSourceSize": {"x":0,"y":0,"w":173,"h":346},
	"sourceSize": {"w":173,"h":346}
},
"intrigue/ramka_big_0052":
{
	"frame": {"x":876,"y":349,"w":173,"h":346},
	"rotated": false,
	"trimmed": false,
	"spriteSourceSize": {"x":0,"y":0,"w":173,"h":346},
	"sourceSize": {"w":173,"h":346}
},
"intrigue/ramka_big_0054":
{
	"frame": {"x":876,"y":697,"w":173,"h":346},
	"rotated": false,
	"trimmed": false,
	"spriteSourceSize": {"x":0,"y":0,"w":173,"h":346},
	"sourceSize": {"w":173,"h":346}
},
"intrigue/ramka_big_0056":
{
	"frame": {"x":876,"y":1045,"w":173,"h":346},
	"rotated": false,
	"trimmed": false,
	"spriteSourceSize": {"x":0,"y":0,"w":173,"h":346},
	"sourceSize": {"w":173,"h":346}
},
"intrigue/ramka_big_0058":
{
	"frame": {"x":876,"y":1393,"w":173,"h":346},
	"rotated": false,
	"trimmed": false,
	"spriteSourceSize": {"x":0,"y":0,"w":173,"h":346},
	"sourceSize": {"w":173,"h":346}
},
"intrigue/ramka_big_0060":
{
	"frame": {"x":1051,"y":1,"w":173,"h":346},
	"rotated": false,
	"trimmed": false,
	"spriteSourceSize": {"x":0,"y":0,"w":173,"h":346},
	"sourceSize": {"w":173,"h":346}
},
"intrigue/ramka_big_0062":
{
	"frame": {"x":1051,"y":349,"w":173,"h":346},
	"rotated": false,
	"trimmed": false,
	"spriteSourceSize": {"x":0,"y":0,"w":173,"h":346},
	"sourceSize": {"w":173,"h":346}
},
"intrigue/ramka_big_0064":
{
	"frame": {"x":1051,"y":697,"w":173,"h":346},
	"rotated": false,
	"trimmed": false,
	"spriteSourceSize": {"x":0,"y":0,"w":173,"h":346},
	"sourceSize": {"w":173,"h":346}
},
"intrigue/ramka_big_0066":
{
	"frame": {"x":1051,"y":1045,"w":173,"h":346},
	"rotated": false,
	"trimmed": false,
	"spriteSourceSize": {"x":0,"y":0,"w":173,"h":346},
	"sourceSize": {"w":173,"h":346}
},
"intrigue/ramka_big_0068":
{
	"frame": {"x":1051,"y":1393,"w":173,"h":346},
	"rotated": false,
	"trimmed": false,
	"spriteSourceSize": {"x":0,"y":0,"w":173,"h":346},
	"sourceSize": {"w":173,"h":346}
},
"intrigue/ramka_big_0070":
{
	"frame": {"x":1226,"y":1,"w":173,"h":346},
	"rotated": false,
	"trimmed": false,
	"spriteSourceSize": {"x":0,"y":0,"w":173,"h":346},
	"sourceSize": {"w":173,"h":346}
},
"intrigue/ramka_big_0072":
{
	"frame": {"x":1226,"y":349,"w":173,"h":346},
	"rotated": false,
	"trimmed": false,
	"spriteSourceSize": {"x":0,"y":0,"w":173,"h":346},
	"sourceSize": {"w":173,"h":346}
},
"intrigue/ramka_big_0074":
{
	"frame": {"x":1226,"y":697,"w":173,"h":346},
	"rotated": false,
	"trimmed": false,
	"spriteSourceSize": {"x":0,"y":0,"w":173,"h":346},
	"sourceSize": {"w":173,"h":346}
},
"intrigue/ramka_big_0076":
{
	"frame": {"x":1226,"y":1045,"w":173,"h":346},
	"rotated": false,
	"trimmed": false,
	"spriteSourceSize": {"x":0,"y":0,"w":173,"h":346},
	"sourceSize": {"w":173,"h":346}
},
"intrigue/ramka_big_0078":
{
	"frame": {"x":1226,"y":1393,"w":173,"h":346},
	"rotated": false,
	"trimmed": false,
	"spriteSourceSize": {"x":0,"y":0,"w":173,"h":346},
	"sourceSize": {"w":173,"h":346}
},
"intrigue/ramka_big_0080":
{
	"frame": {"x":1401,"y":1,"w":173,"h":346},
	"rotated": false,
	"trimmed": false,
	"spriteSourceSize": {"x":0,"y":0,"w":173,"h":346},
	"sourceSize": {"w":173,"h":346}
},
"intrigue/ramka_big_0082":
{
	"frame": {"x":1401,"y":349,"w":173,"h":346},
	"rotated": false,
	"trimmed": false,
	"spriteSourceSize": {"x":0,"y":0,"w":173,"h":346},
	"sourceSize": {"w":173,"h":346}
},
"intrigue/ramka_big_0084":
{
	"frame": {"x":1401,"y":697,"w":173,"h":346},
	"rotated": false,
	"trimmed": false,
	"spriteSourceSize": {"x":0,"y":0,"w":173,"h":346},
	"sourceSize": {"w":173,"h":346}
},
"intrigue/ramka_big_0086":
{
	"frame": {"x":1401,"y":1045,"w":173,"h":346},
	"rotated": false,
	"trimmed": false,
	"spriteSourceSize": {"x":0,"y":0,"w":173,"h":346},
	"sourceSize": {"w":173,"h":346}
},
"intrigue/ramka_big_0088":
{
	"frame": {"x":1401,"y":1393,"w":173,"h":346},
	"rotated": false,
	"trimmed": false,
	"spriteSourceSize": {"x":0,"y":0,"w":173,"h":346},
	"sourceSize": {"w":173,"h":346}
},
"intrigue/ramka_big_0090":
{
	"frame": {"x":1576,"y":1,"w":173,"h":346},
	"rotated": false,
	"trimmed": false,
	"spriteSourceSize": {"x":0,"y":0,"w":173,"h":346},
	"sourceSize": {"w":173,"h":346}
},
"intrigue/ramka_big_0092":
{
	"frame": {"x":1576,"y":349,"w":173,"h":346},
	"rotated": false,
	"trimmed": false,
	"spriteSourceSize": {"x":0,"y":0,"w":173,"h":346},
	"sourceSize": {"w":173,"h":346}
},
"intrigue/ramka_big_0094":
{
	"frame": {"x":1576,"y":697,"w":173,"h":346},
	"rotated": false,
	"trimmed": false,
	"spriteSourceSize": {"x":0,"y":0,"w":173,"h":346},
	"sourceSize": {"w":173,"h":346}
},
"intrigue/ramka_big_0096":
{
	"frame": {"x":1576,"y":1045,"w":173,"h":346},
	"rotated": false,
	"trimmed": false,
	"spriteSourceSize": {"x":0,"y":0,"w":173,"h":346},
	"sourceSize": {"w":173,"h":346}
},
"intrigue/ramka_big_0098":
{
	"frame": {"x":1576,"y":1393,"w":173,"h":346},
	"rotated": false,
	"trimmed": false,
	"spriteSourceSize": {"x":0,"y":0,"w":173,"h":346},
	"sourceSize": {"w":173,"h":346}
},
"intrigue/ramka_big_0100":
{
	"frame": {"x":1751,"y":1,"w":173,"h":346},
	"rotated": false,
	"trimmed": false,
	"spriteSourceSize": {"x":0,"y":0,"w":173,"h":346},
	"sourceSize": {"w":173,"h":346}
},
"intrigue/ramka_big_0102":
{
	"frame": {"x":1751,"y":349,"w":173,"h":346},
	"rotated": false,
	"trimmed": false,
	"spriteSourceSize": {"x":0,"y":0,"w":173,"h":346},
	"sourceSize": {"w":173,"h":346}
},
"intrigue/ramka_big_0104":
{
	"frame": {"x":1751,"y":697,"w":173,"h":346},
	"rotated": false,
	"trimmed": false,
	"spriteSourceSize": {"x":0,"y":0,"w":173,"h":346},
	"sourceSize": {"w":173,"h":346}
},
"intrigue/ramka_big_0106":
{
	"frame": {"x":1751,"y":1045,"w":173,"h":346},
	"rotated": false,
	"trimmed": false,
	"spriteSourceSize": {"x":0,"y":0,"w":173,"h":346},
	"sourceSize": {"w":173,"h":346}
},
"intrigue/ramka_big_0108":
{
	"frame": {"x":1751,"y":1393,"w":173,"h":346},
	"rotated": false,
	"trimmed": false,
	"spriteSourceSize": {"x":0,"y":0,"w":173,"h":346},
	"sourceSize": {"w":173,"h":346}
},
"intrigue/ramka_big_0110":
{
	"frame": {"x":1926,"y":1,"w":173,"h":346},
	"rotated": false,
	"trimmed": false,
	"spriteSourceSize": {"x":0,"y":0,"w":173,"h":346},
	"sourceSize": {"w":173,"h":346}
},
"intrigue/ramka_big_0112":
{
	"frame": {"x":1926,"y":349,"w":173,"h":346},
	"rotated": false,
	"trimmed": false,
	"spriteSourceSize": {"x":0,"y":0,"w":173,"h":346},
	"sourceSize": {"w":173,"h":346}
},
"intrigue/ramka_big_0114":
{
	"frame": {"x":1926,"y":697,"w":173,"h":346},
	"rotated": false,
	"trimmed": false,
	"spriteSourceSize": {"x":0,"y":0,"w":173,"h":346},
	"sourceSize": {"w":173,"h":346}
},
"intrigue/ramka_big_0116":
{
	"frame": {"x":1926,"y":1045,"w":173,"h":346},
	"rotated": false,
	"trimmed": false,
	"spriteSourceSize": {"x":0,"y":0,"w":173,"h":346},
	"sourceSize": {"w":173,"h":346}
},
"intrigue/ramka_big_0118":
{
	"frame": {"x":1926,"y":1393,"w":173,"h":346},
	"rotated": false,
	"trimmed": false,
	"spriteSourceSize": {"x":0,"y":0,"w":173,"h":346},
	"sourceSize": {"w":173,"h":346}
}},
"meta": {
	"app": "http://www.codeandweb.com/texturepacker",
	"version": "1.0",
	"image": "intrigue.png",
	"format": "RGBA8888",
	"size": {"w":2100,"h":1740},
	"scale": "1",
	"smartupdate": "$TexturePacker:SmartUpdate:64c8b834f1fbf2c22c28cda6ee83649a:387e73e7fece5da489a8d845f1f56764:97bbe1ab61a3cccda75299247d587609$"
}
}
