{"frames": {

"wich_0000":
{
	"frame": {"x":1,"y":1,"w":197,"h":197},
	"rotated": false,
	"trimmed": false,
	"spriteSourceSize": {"x":0,"y":0,"w":197,"h":197},
	"sourceSize": {"w":197,"h":197}
},
"wich_0002":
{
	"frame": {"x":1,"y":200,"w":197,"h":197},
	"rotated": false,
	"trimmed": false,
	"spriteSourceSize": {"x":0,"y":0,"w":197,"h":197},
	"sourceSize": {"w":197,"h":197}
},
"wich_0004":
{
	"frame": {"x":1,"y":399,"w":197,"h":197},
	"rotated": false,
	"trimmed": false,
	"spriteSourceSize": {"x":0,"y":0,"w":197,"h":197},
	"sourceSize": {"w":197,"h":197}
},
"wich_0006":
{
	"frame": {"x":1,"y":598,"w":197,"h":197},
	"rotated": false,
	"trimmed": false,
	"spriteSourceSize": {"x":0,"y":0,"w":197,"h":197},
	"sourceSize": {"w":197,"h":197}
},
"wich_0008":
{
	"frame": {"x":200,"y":1,"w":197,"h":197},
	"rotated": false,
	"trimmed": false,
	"spriteSourceSize": {"x":0,"y":0,"w":197,"h":197},
	"sourceSize": {"w":197,"h":197}
},
"wich_0010":
{
	"frame": {"x":200,"y":200,"w":197,"h":197},
	"rotated": false,
	"trimmed": false,
	"spriteSourceSize": {"x":0,"y":0,"w":197,"h":197},
	"sourceSize": {"w":197,"h":197}
},
"wich_0012":
{
	"frame": {"x":200,"y":399,"w":197,"h":197},
	"rotated": false,
	"trimmed": false,
	"spriteSourceSize": {"x":0,"y":0,"w":197,"h":197},
	"sourceSize": {"w":197,"h":197}
},
"wich_0014":
{
	"frame": {"x":200,"y":598,"w":197,"h":197},
	"rotated": false,
	"trimmed": false,
	"spriteSourceSize": {"x":0,"y":0,"w":197,"h":197},
	"sourceSize": {"w":197,"h":197}
},
"wich_0016":
{
	"frame": {"x":399,"y":1,"w":197,"h":197},
	"rotated": false,
	"trimmed": false,
	"spriteSourceSize": {"x":0,"y":0,"w":197,"h":197},
	"sourceSize": {"w":197,"h":197}
},
"wich_0018":
{
	"frame": {"x":399,"y":200,"w":197,"h":197},
	"rotated": false,
	"trimmed": false,
	"spriteSourceSize": {"x":0,"y":0,"w":197,"h":197},
	"sourceSize": {"w":197,"h":197}
},
"wich_0020":
{
	"frame": {"x":399,"y":399,"w":197,"h":197},
	"rotated": false,
	"trimmed": false,
	"spriteSourceSize": {"x":0,"y":0,"w":197,"h":197},
	"sourceSize": {"w":197,"h":197}
},
"wich_0022":
{
	"frame": {"x":399,"y":598,"w":197,"h":197},
	"rotated": false,
	"trimmed": false,
	"spriteSourceSize": {"x":0,"y":0,"w":197,"h":197},
	"sourceSize": {"w":197,"h":197}
},
"wich_0024":
{
	"frame": {"x":598,"y":1,"w":197,"h":197},
	"rotated": false,
	"trimmed": false,
	"spriteSourceSize": {"x":0,"y":0,"w":197,"h":197},
	"sourceSize": {"w":197,"h":197}
},
"wich_0026":
{
	"frame": {"x":598,"y":200,"w":197,"h":197},
	"rotated": false,
	"trimmed": false,
	"spriteSourceSize": {"x":0,"y":0,"w":197,"h":197},
	"sourceSize": {"w":197,"h":197}
},
"wich_0028":
{
	"frame": {"x":598,"y":399,"w":197,"h":197},
	"rotated": false,
	"trimmed": false,
	"spriteSourceSize": {"x":0,"y":0,"w":197,"h":197},
	"sourceSize": {"w":197,"h":197}
},
"wich_0030":
{
	"frame": {"x":598,"y":598,"w":197,"h":197},
	"rotated": false,
	"trimmed": false,
	"spriteSourceSize": {"x":0,"y":0,"w":197,"h":197},
	"sourceSize": {"w":197,"h":197}
},
"wich_0032":
{
	"frame": {"x":797,"y":1,"w":197,"h":197},
	"rotated": false,
	"trimmed": false,
	"spriteSourceSize": {"x":0,"y":0,"w":197,"h":197},
	"sourceSize": {"w":197,"h":197}
},
"wich_0034":
{
	"frame": {"x":797,"y":200,"w":197,"h":197},
	"rotated": false,
	"trimmed": false,
	"spriteSourceSize": {"x":0,"y":0,"w":197,"h":197},
	"sourceSize": {"w":197,"h":197}
},
"wich_0036":
{
	"frame": {"x":797,"y":399,"w":197,"h":197},
	"rotated": false,
	"trimmed": false,
	"spriteSourceSize": {"x":0,"y":0,"w":197,"h":197},
	"sourceSize": {"w":197,"h":197}
},
"wich_0038":
{
	"frame": {"x":797,"y":598,"w":197,"h":197},
	"rotated": false,
	"trimmed": false,
	"spriteSourceSize": {"x":0,"y":0,"w":197,"h":197},
	"sourceSize": {"w":197,"h":197}
},
"wich_0040":
{
	"frame": {"x":996,"y":1,"w":197,"h":197},
	"rotated": false,
	"trimmed": false,
	"spriteSourceSize": {"x":0,"y":0,"w":197,"h":197},
	"sourceSize": {"w":197,"h":197}
},
"wich_0042":
{
	"frame": {"x":996,"y":200,"w":197,"h":197},
	"rotated": false,
	"trimmed": false,
	"spriteSourceSize": {"x":0,"y":0,"w":197,"h":197},
	"sourceSize": {"w":197,"h":197}
},
"wich_0044":
{
	"frame": {"x":996,"y":399,"w":197,"h":197},
	"rotated": false,
	"trimmed": false,
	"spriteSourceSize": {"x":0,"y":0,"w":197,"h":197},
	"sourceSize": {"w":197,"h":197}
},
"wich_0046":
{
	"frame": {"x":996,"y":598,"w":197,"h":197},
	"rotated": false,
	"trimmed": false,
	"spriteSourceSize": {"x":0,"y":0,"w":197,"h":197},
	"sourceSize": {"w":197,"h":197}
},
"wich_0048":
{
	"frame": {"x":1195,"y":1,"w":197,"h":197},
	"rotated": false,
	"trimmed": false,
	"spriteSourceSize": {"x":0,"y":0,"w":197,"h":197},
	"sourceSize": {"w":197,"h":197}
},
"wich_0050":
{
	"frame": {"x":1394,"y":1,"w":197,"h":197},
	"rotated": false,
	"trimmed": false,
	"spriteSourceSize": {"x":0,"y":0,"w":197,"h":197},
	"sourceSize": {"w":197,"h":197}
},
"wich_0052":
{
	"frame": {"x":1593,"y":1,"w":197,"h":197},
	"rotated": false,
	"trimmed": false,
	"spriteSourceSize": {"x":0,"y":0,"w":197,"h":197},
	"sourceSize": {"w":197,"h":197}
},
"wich_0054":
{
	"frame": {"x":1195,"y":200,"w":197,"h":197},
	"rotated": false,
	"trimmed": false,
	"spriteSourceSize": {"x":0,"y":0,"w":197,"h":197},
	"sourceSize": {"w":197,"h":197}
},
"wich_0056":
{
	"frame": {"x":1195,"y":399,"w":197,"h":197},
	"rotated": false,
	"trimmed": false,
	"spriteSourceSize": {"x":0,"y":0,"w":197,"h":197},
	"sourceSize": {"w":197,"h":197}
},
"wich_0058":
{
	"frame": {"x":1195,"y":598,"w":197,"h":197},
	"rotated": false,
	"trimmed": false,
	"spriteSourceSize": {"x":0,"y":0,"w":197,"h":197},
	"sourceSize": {"w":197,"h":197}
},
"wich_0060":
{
	"frame": {"x":1394,"y":200,"w":197,"h":197},
	"rotated": false,
	"trimmed": false,
	"spriteSourceSize": {"x":0,"y":0,"w":197,"h":197},
	"sourceSize": {"w":197,"h":197}
},
"wich_0062":
{
	"frame": {"x":1593,"y":200,"w":197,"h":197},
	"rotated": false,
	"trimmed": false,
	"spriteSourceSize": {"x":0,"y":0,"w":197,"h":197},
	"sourceSize": {"w":197,"h":197}
},
"wich_0064":
{
	"frame": {"x":1394,"y":399,"w":197,"h":197},
	"rotated": false,
	"trimmed": false,
	"spriteSourceSize": {"x":0,"y":0,"w":197,"h":197},
	"sourceSize": {"w":197,"h":197}
},
"wich_0066":
{
	"frame": {"x":1394,"y":598,"w":197,"h":197},
	"rotated": false,
	"trimmed": false,
	"spriteSourceSize": {"x":0,"y":0,"w":197,"h":197},
	"sourceSize": {"w":197,"h":197}
},
"wich_0068":
{
	"frame": {"x":1593,"y":399,"w":197,"h":197},
	"rotated": false,
	"trimmed": false,
	"spriteSourceSize": {"x":0,"y":0,"w":197,"h":197},
	"sourceSize": {"w":197,"h":197}
},
"wich_0070":
{
	"frame": {"x":1593,"y":598,"w":197,"h":197},
	"rotated": false,
	"trimmed": false,
	"spriteSourceSize": {"x":0,"y":0,"w":197,"h":197},
	"sourceSize": {"w":197,"h":197}
}},
"meta": {
	"app": "http://www.codeandweb.com/texturepacker",
	"version": "1.0",
	"image": "Witch_1_animation.png",
	"format": "RGBA8888",
	"size": {"w":1791,"h":796},
	"scale": "1",
	"smartupdate": "$TexturePacker:SmartUpdate:e3178844d188f8892200edfa66a98454:d6987b218c7faf8316fe978b6611d2b6:b2c1ef8f86b553f99c937530f6bfc372$"
}
}
