{"frames": {

"girl_0001":
{
	"frame": {"x":319,"y":1,"w":316,"h":254},
	"rotated": false,
	"trimmed": true,
	"spriteSourceSize": {"x":32,"y":31,"w":316,"h":254},
	"sourceSize": {"w":380,"h":316}
},
"girl_0003":
{
	"frame": {"x":637,"y":1,"w":316,"h":254},
	"rotated": false,
	"trimmed": true,
	"spriteSourceSize": {"x":32,"y":31,"w":316,"h":254},
	"sourceSize": {"w":380,"h":316}
},
"girl_0005":
{
	"frame": {"x":319,"y":257,"w":321,"h":263},
	"rotated": false,
	"trimmed": true,
	"spriteSourceSize": {"x":29,"y":24,"w":321,"h":263},
	"sourceSize": {"w":380,"h":316}
},
"girl_0007":
{
	"frame": {"x":349,"y":523,"w":352,"h":288},
	"rotated": false,
	"trimmed": true,
	"spriteSourceSize": {"x":14,"y":12,"w":352,"h":288},
	"sourceSize": {"w":380,"h":316}
},
"girl_0009":
{
	"frame": {"x":741,"y":834,"w":372,"h":305},
	"rotated": false,
	"trimmed": true,
	"spriteSourceSize": {"x":4,"y":3,"w":372,"h":305},
	"sourceSize": {"w":380,"h":316}
},
"girl_0011":
{
	"frame": {"x":1115,"y":834,"w":378,"h":310},
	"rotated": false,
	"trimmed": true,
	"spriteSourceSize": {"x":1,"y":1,"w":378,"h":310},
	"sourceSize": {"w":380,"h":316}
},
"girl_0013":
{
	"frame": {"x":368,"y":822,"w":371,"h":304},
	"rotated": false,
	"trimmed": true,
	"spriteSourceSize": {"x":4,"y":4,"w":371,"h":304},
	"sourceSize": {"w":380,"h":316}
},
"girl_0015":
{
	"frame": {"x":1,"y":813,"w":365,"h":299},
	"rotated": false,
	"trimmed": true,
	"spriteSourceSize": {"x":7,"y":6,"w":365,"h":299},
	"sourceSize": {"w":380,"h":316}
},
"girl_0017":
{
	"frame": {"x":1060,"y":537,"w":362,"h":295},
	"rotated": false,
	"trimmed": true,
	"spriteSourceSize": {"x":9,"y":8,"w":362,"h":295},
	"sourceSize": {"w":380,"h":316}
},
"girl_0019":
{
	"frame": {"x":703,"y":529,"w":355,"h":291},
	"rotated": false,
	"trimmed": true,
	"spriteSourceSize": {"x":12,"y":10,"w":355,"h":291},
	"sourceSize": {"w":380,"h":316}
},
"girl_0021":
{
	"frame": {"x":1,"y":522,"w":346,"h":283},
	"rotated": false,
	"trimmed": true,
	"spriteSourceSize": {"x":17,"y":14,"w":346,"h":283},
	"sourceSize": {"w":380,"h":316}
},
"girl_0023":
{
	"frame": {"x":1310,"y":257,"w":341,"h":278},
	"rotated": false,
	"trimmed": true,
	"spriteSourceSize": {"x":19,"y":17,"w":341,"h":278},
	"sourceSize": {"w":380,"h":316}
},
"girl_0025":
{
	"frame": {"x":973,"y":257,"w":335,"h":270},
	"rotated": false,
	"trimmed": true,
	"spriteSourceSize": {"x":22,"y":21,"w":335,"h":270},
	"sourceSize": {"w":380,"h":316}
},
"girl_0027":
{
	"frame": {"x":642,"y":257,"w":329,"h":264},
	"rotated": false,
	"trimmed": true,
	"spriteSourceSize": {"x":25,"y":24,"w":329,"h":264},
	"sourceSize": {"w":380,"h":316}
},
"girl_0029":
{
	"frame": {"x":955,"y":1,"w":321,"h":254},
	"rotated": false,
	"trimmed": true,
	"spriteSourceSize": {"x":29,"y":31,"w":321,"h":254},
	"sourceSize": {"w":380,"h":316}
},
"girl_0031":
{
	"frame": {"x":1,"y":1,"w":316,"h":252},
	"rotated": false,
	"trimmed": true,
	"spriteSourceSize": {"x":32,"y":33,"w":316,"h":252},
	"sourceSize": {"w":380,"h":316}
},
"girl_0033":
{
	"frame": {"x":1278,"y":1,"w":316,"h":254},
	"rotated": false,
	"trimmed": true,
	"spriteSourceSize": {"x":32,"y":31,"w":316,"h":254},
	"sourceSize": {"w":380,"h":316}
},
"girl_0035":
{
	"frame": {"x":1,"y":255,"w":316,"h":254},
	"rotated": false,
	"trimmed": true,
	"spriteSourceSize": {"x":32,"y":31,"w":316,"h":254},
	"sourceSize": {"w":380,"h":316}
}},
"meta": {
	"app": "http://www.codeandweb.com/texturepacker",
	"version": "1.0",
	"image": "girl_animation.png",
	"format": "RGBA8888",
	"size": {"w":1652,"h":1145},
	"scale": "1",
	"smartupdate": "$TexturePacker:SmartUpdate:3a7209ae5a6d0792927eb03452ee4573:9d5e715f2b8ce8ba56fb10a6afd5677c:914d7a83f33b9670be62ed3903f408be$"
}
}
