{
  "compilerOptions": {
    "module": "system",
    "target": "es5",
    "sourceMap": true,
    "allowJs": true,
    "removeComments": true,
    "preserveConstEnums": true,
    "allowUnreachableCode": true,
    "noImplicitReturns": true,
    "noFallthroughCasesInSwitch": true,
    "allowSyntheticDefaultImports": true,
    "outFile": "../build/game.js",
    "sourceRoot": "../src/"
  },
  "include": [
    "../src/**/*"
  ],
  "exclude": [
    "node_modules"
  ]
}