{"frames": {

"icon_bullet":
{
	"frame": {"x":319,"y":652,"w":158,"h":214},
	"rotated": false,
	"trimmed": true,
	"spriteSourceSize": {"x":3,"y":3,"w":158,"h":214},
	"sourceSize": {"w":165,"h":219}
},
"icon_empty":
{
	"frame": {"x":1,"y":860,"w":1,"h":1},
	"rotated": false,
	"trimmed": false,
	"spriteSourceSize": {"x":0,"y":0,"w":1,"h":1},
	"sourceSize": {"w":1,"h":1}
},
"icon_fingerprint":
{
	"frame": {"x":110,"y":623,"w":207,"h":215},
	"rotated": false,
	"trimmed": false,
	"spriteSourceSize": {"x":0,"y":0,"w":207,"h":215},
	"sourceSize": {"w":207,"h":215}
},
"icon_gems":
{
	"frame": {"x":311,"y":1,"w":199,"h":228},
	"rotated": false,
	"trimmed": false,
	"spriteSourceSize": {"x":0,"y":0,"w":199,"h":228},
	"sourceSize": {"w":199,"h":228}
},
"icon_girl":
{
	"frame": {"x":1,"y":1,"w":308,"h":249},
	"rotated": false,
	"trimmed": false,
	"spriteSourceSize": {"x":0,"y":0,"w":308,"h":249},
	"sourceSize": {"w":308,"h":249}
},
"icon_handcuffs":
{
	"frame": {"x":311,"y":231,"w":199,"h":228},
	"rotated": false,
	"trimmed": false,
	"spriteSourceSize": {"x":0,"y":0,"w":199,"h":228},
	"sourceSize": {"w":199,"h":228}
},
"icon_keys":
{
	"frame": {"x":1,"y":623,"w":107,"h":235},
	"rotated": false,
	"trimmed": true,
	"spriteSourceSize": {"x":3,"y":3,"w":107,"h":235},
	"sourceSize": {"w":113,"h":258}
},
"icon_letter":
{
	"frame": {"x":1,"y":252,"w":306,"h":143},
	"rotated": false,
	"trimmed": false,
	"spriteSourceSize": {"x":0,"y":0,"w":306,"h":143},
	"sourceSize": {"w":306,"h":143}
},
"icon_policeBadge":
{
	"frame": {"x":319,"y":461,"w":187,"h":189},
	"rotated": false,
	"trimmed": false,
	"spriteSourceSize": {"x":0,"y":0,"w":187,"h":189},
	"sourceSize": {"w":187,"h":189}
},
"icon_prisoner":
{
	"frame": {"x":1,"y":397,"w":224,"h":224},
	"rotated": false,
	"trimmed": false,
	"spriteSourceSize": {"x":0,"y":0,"w":224,"h":224},
	"sourceSize": {"w":224,"h":224}
}},
"meta": {
	"app": "http://www.codeandweb.com/texturepacker",
	"version": "1.0",
	"image": "symbols.png",
	"format": "RGBA8888",
	"size": {"w":511,"h":867},
	"scale": "1",
	"smartupdate": "$TexturePacker:SmartUpdate:b97289109198e78dc0029452c8e99468:ad811f77715ee26b506df4e284fd3061:d295ed7153fe372207e34d26d380974a$"
}
}
