{"frames": {

"wich_0000":
{
	"frame": {"x":1,"y":1,"w":197,"h":539},
	"rotated": false,
	"trimmed": false,
	"spriteSourceSize": {"x":0,"y":0,"w":197,"h":539},
	"sourceSize": {"w":197,"h":539}
},
"wich_0002":
{
	"frame": {"x":1,"y":542,"w":197,"h":539},
	"rotated": false,
	"trimmed": false,
	"spriteSourceSize": {"x":0,"y":0,"w":197,"h":539},
	"sourceSize": {"w":197,"h":539}
},
"wich_0004":
{
	"frame": {"x":1,"y":1083,"w":197,"h":539},
	"rotated": false,
	"trimmed": false,
	"spriteSourceSize": {"x":0,"y":0,"w":197,"h":539},
	"sourceSize": {"w":197,"h":539}
},
"wich_0006":
{
	"frame": {"x":200,"y":1,"w":197,"h":539},
	"rotated": false,
	"trimmed": false,
	"spriteSourceSize": {"x":0,"y":0,"w":197,"h":539},
	"sourceSize": {"w":197,"h":539}
},
"wich_0008":
{
	"frame": {"x":200,"y":542,"w":197,"h":539},
	"rotated": false,
	"trimmed": false,
	"spriteSourceSize": {"x":0,"y":0,"w":197,"h":539},
	"sourceSize": {"w":197,"h":539}
},
"wich_0010":
{
	"frame": {"x":200,"y":1083,"w":197,"h":539},
	"rotated": false,
	"trimmed": false,
	"spriteSourceSize": {"x":0,"y":0,"w":197,"h":539},
	"sourceSize": {"w":197,"h":539}
},
"wich_0012":
{
	"frame": {"x":399,"y":1,"w":197,"h":539},
	"rotated": false,
	"trimmed": false,
	"spriteSourceSize": {"x":0,"y":0,"w":197,"h":539},
	"sourceSize": {"w":197,"h":539}
},
"wich_0014":
{
	"frame": {"x":399,"y":542,"w":197,"h":539},
	"rotated": false,
	"trimmed": false,
	"spriteSourceSize": {"x":0,"y":0,"w":197,"h":539},
	"sourceSize": {"w":197,"h":539}
},
"wich_0016":
{
	"frame": {"x":399,"y":1083,"w":197,"h":539},
	"rotated": false,
	"trimmed": false,
	"spriteSourceSize": {"x":0,"y":0,"w":197,"h":539},
	"sourceSize": {"w":197,"h":539}
},
"wich_0018":
{
	"frame": {"x":598,"y":1,"w":197,"h":539},
	"rotated": false,
	"trimmed": false,
	"spriteSourceSize": {"x":0,"y":0,"w":197,"h":539},
	"sourceSize": {"w":197,"h":539}
},
"wich_0020":
{
	"frame": {"x":598,"y":542,"w":197,"h":539},
	"rotated": false,
	"trimmed": false,
	"spriteSourceSize": {"x":0,"y":0,"w":197,"h":539},
	"sourceSize": {"w":197,"h":539}
},
"wich_0022":
{
	"frame": {"x":598,"y":1083,"w":197,"h":539},
	"rotated": false,
	"trimmed": false,
	"spriteSourceSize": {"x":0,"y":0,"w":197,"h":539},
	"sourceSize": {"w":197,"h":539}
},
"wich_0024":
{
	"frame": {"x":797,"y":1,"w":197,"h":539},
	"rotated": false,
	"trimmed": false,
	"spriteSourceSize": {"x":0,"y":0,"w":197,"h":539},
	"sourceSize": {"w":197,"h":539}
},
"wich_0026":
{
	"frame": {"x":797,"y":542,"w":197,"h":539},
	"rotated": false,
	"trimmed": false,
	"spriteSourceSize": {"x":0,"y":0,"w":197,"h":539},
	"sourceSize": {"w":197,"h":539}
},
"wich_0028":
{
	"frame": {"x":797,"y":1083,"w":197,"h":539},
	"rotated": false,
	"trimmed": false,
	"spriteSourceSize": {"x":0,"y":0,"w":197,"h":539},
	"sourceSize": {"w":197,"h":539}
},
"wich_0030":
{
	"frame": {"x":996,"y":1,"w":197,"h":539},
	"rotated": false,
	"trimmed": false,
	"spriteSourceSize": {"x":0,"y":0,"w":197,"h":539},
	"sourceSize": {"w":197,"h":539}
},
"wich_0032":
{
	"frame": {"x":996,"y":542,"w":197,"h":539},
	"rotated": false,
	"trimmed": false,
	"spriteSourceSize": {"x":0,"y":0,"w":197,"h":539},
	"sourceSize": {"w":197,"h":539}
},
"wich_0034":
{
	"frame": {"x":996,"y":1083,"w":197,"h":539},
	"rotated": false,
	"trimmed": false,
	"spriteSourceSize": {"x":0,"y":0,"w":197,"h":539},
	"sourceSize": {"w":197,"h":539}
},
"wich_0036":
{
	"frame": {"x":1195,"y":1,"w":197,"h":539},
	"rotated": false,
	"trimmed": false,
	"spriteSourceSize": {"x":0,"y":0,"w":197,"h":539},
	"sourceSize": {"w":197,"h":539}
},
"wich_0038":
{
	"frame": {"x":1195,"y":542,"w":197,"h":539},
	"rotated": false,
	"trimmed": false,
	"spriteSourceSize": {"x":0,"y":0,"w":197,"h":539},
	"sourceSize": {"w":197,"h":539}
},
"wich_0040":
{
	"frame": {"x":1195,"y":1083,"w":197,"h":539},
	"rotated": false,
	"trimmed": false,
	"spriteSourceSize": {"x":0,"y":0,"w":197,"h":539},
	"sourceSize": {"w":197,"h":539}
},
"wich_0042":
{
	"frame": {"x":1394,"y":1,"w":197,"h":539},
	"rotated": false,
	"trimmed": false,
	"spriteSourceSize": {"x":0,"y":0,"w":197,"h":539},
	"sourceSize": {"w":197,"h":539}
},
"wich_0044":
{
	"frame": {"x":1394,"y":542,"w":197,"h":539},
	"rotated": false,
	"trimmed": false,
	"spriteSourceSize": {"x":0,"y":0,"w":197,"h":539},
	"sourceSize": {"w":197,"h":539}
},
"wich_0046":
{
	"frame": {"x":1394,"y":1083,"w":197,"h":539},
	"rotated": false,
	"trimmed": false,
	"spriteSourceSize": {"x":0,"y":0,"w":197,"h":539},
	"sourceSize": {"w":197,"h":539}
},
"wich_0048":
{
	"frame": {"x":1593,"y":1,"w":197,"h":539},
	"rotated": false,
	"trimmed": false,
	"spriteSourceSize": {"x":0,"y":0,"w":197,"h":539},
	"sourceSize": {"w":197,"h":539}
},
"wich_0050":
{
	"frame": {"x":1593,"y":542,"w":197,"h":539},
	"rotated": false,
	"trimmed": false,
	"spriteSourceSize": {"x":0,"y":0,"w":197,"h":539},
	"sourceSize": {"w":197,"h":539}
},
"wich_0052":
{
	"frame": {"x":1593,"y":1083,"w":197,"h":539},
	"rotated": false,
	"trimmed": false,
	"spriteSourceSize": {"x":0,"y":0,"w":197,"h":539},
	"sourceSize": {"w":197,"h":539}
},
"wich_0054":
{
	"frame": {"x":1792,"y":1,"w":197,"h":539},
	"rotated": false,
	"trimmed": false,
	"spriteSourceSize": {"x":0,"y":0,"w":197,"h":539},
	"sourceSize": {"w":197,"h":539}
},
"wich_0056":
{
	"frame": {"x":1792,"y":542,"w":197,"h":539},
	"rotated": false,
	"trimmed": false,
	"spriteSourceSize": {"x":0,"y":0,"w":197,"h":539},
	"sourceSize": {"w":197,"h":539}
},
"wich_0058":
{
	"frame": {"x":1792,"y":1083,"w":197,"h":539},
	"rotated": false,
	"trimmed": false,
	"spriteSourceSize": {"x":0,"y":0,"w":197,"h":539},
	"sourceSize": {"w":197,"h":539}
},
"wich_0060":
{
	"frame": {"x":1991,"y":1,"w":197,"h":539},
	"rotated": false,
	"trimmed": false,
	"spriteSourceSize": {"x":0,"y":0,"w":197,"h":539},
	"sourceSize": {"w":197,"h":539}
},
"wich_0062":
{
	"frame": {"x":1991,"y":542,"w":197,"h":539},
	"rotated": false,
	"trimmed": false,
	"spriteSourceSize": {"x":0,"y":0,"w":197,"h":539},
	"sourceSize": {"w":197,"h":539}
},
"wich_0064":
{
	"frame": {"x":1991,"y":1083,"w":197,"h":539},
	"rotated": false,
	"trimmed": false,
	"spriteSourceSize": {"x":0,"y":0,"w":197,"h":539},
	"sourceSize": {"w":197,"h":539}
},
"wich_0066":
{
	"frame": {"x":2190,"y":1,"w":197,"h":539},
	"rotated": false,
	"trimmed": false,
	"spriteSourceSize": {"x":0,"y":0,"w":197,"h":539},
	"sourceSize": {"w":197,"h":539}
},
"wich_0068":
{
	"frame": {"x":2190,"y":542,"w":197,"h":539},
	"rotated": false,
	"trimmed": false,
	"spriteSourceSize": {"x":0,"y":0,"w":197,"h":539},
	"sourceSize": {"w":197,"h":539}
},
"wich_0070":
{
	"frame": {"x":2190,"y":1083,"w":197,"h":539},
	"rotated": false,
	"trimmed": false,
	"spriteSourceSize": {"x":0,"y":0,"w":197,"h":539},
	"sourceSize": {"w":197,"h":539}
}},
"meta": {
	"app": "http://www.codeandweb.com/texturepacker",
	"version": "1.0",
	"image": "Witch_3_animation.png",
	"format": "RGBA8888",
	"size": {"w":2388,"h":1623},
	"scale": "1",
	"smartupdate": "$TexturePacker:SmartUpdate:8a2c2ee580e49e0f1d456ea452b2845b:7e774b3e1bc93ff5daf7eb4248ade55d:5e615219f97f4dc954243d30f911ace5$"
}
}
