{"frames": {

"progressbar/splashscreen_0000":
{
	"frame": {"x":1047,"y":125,"w":127,"h":123},
	"rotated": false,
	"trimmed": true,
	"spriteSourceSize": {"x":0,"y":0,"w":127,"h":123},
	"sourceSize": {"w":130,"h":123}
},
"progressbar/splashscreen_0002":
{
	"frame": {"x":1176,"y":125,"w":128,"h":123},
	"rotated": false,
	"trimmed": true,
	"spriteSourceSize": {"x":0,"y":0,"w":128,"h":123},
	"sourceSize": {"w":130,"h":123}
},
"progressbar/splashscreen_0004":
{
	"frame": {"x":1306,"y":125,"w":128,"h":123},
	"rotated": false,
	"trimmed": true,
	"spriteSourceSize": {"x":0,"y":0,"w":128,"h":123},
	"sourceSize": {"w":130,"h":123}
},
"progressbar/splashscreen_0006":
{
	"frame": {"x":1436,"y":125,"w":129,"h":123},
	"rotated": false,
	"trimmed": true,
	"spriteSourceSize": {"x":0,"y":0,"w":129,"h":123},
	"sourceSize": {"w":130,"h":123}
},
"progressbar/splashscreen_0008":
{
	"frame": {"x":1,"y":248,"w":129,"h":123},
	"rotated": false,
	"trimmed": true,
	"spriteSourceSize": {"x":0,"y":0,"w":129,"h":123},
	"sourceSize": {"w":130,"h":123}
},
"progressbar/splashscreen_0010":
{
	"frame": {"x":132,"y":248,"w":129,"h":123},
	"rotated": false,
	"trimmed": true,
	"spriteSourceSize": {"x":0,"y":0,"w":129,"h":123},
	"sourceSize": {"w":130,"h":123}
},
"progressbar/splashscreen_0012":
{
	"frame": {"x":263,"y":248,"w":129,"h":123},
	"rotated": false,
	"trimmed": true,
	"spriteSourceSize": {"x":0,"y":0,"w":129,"h":123},
	"sourceSize": {"w":130,"h":123}
},
"progressbar/splashscreen_0014":
{
	"frame": {"x":394,"y":248,"w":128,"h":123},
	"rotated": false,
	"trimmed": true,
	"spriteSourceSize": {"x":0,"y":0,"w":128,"h":123},
	"sourceSize": {"w":130,"h":123}
},
"progressbar/splashscreen_0016":
{
	"frame": {"x":524,"y":248,"w":128,"h":123},
	"rotated": false,
	"trimmed": true,
	"spriteSourceSize": {"x":0,"y":0,"w":128,"h":123},
	"sourceSize": {"w":130,"h":123}
},
"progressbar/splashscreen_0018":
{
	"frame": {"x":654,"y":248,"w":128,"h":123},
	"rotated": false,
	"trimmed": true,
	"spriteSourceSize": {"x":0,"y":0,"w":128,"h":123},
	"sourceSize": {"w":130,"h":123}
},
"progressbar/splashscreen_0020":
{
	"frame": {"x":784,"y":248,"w":128,"h":123},
	"rotated": false,
	"trimmed": true,
	"spriteSourceSize": {"x":0,"y":0,"w":128,"h":123},
	"sourceSize": {"w":130,"h":123}
},
"progressbar/splashscreen_0022":
{
	"frame": {"x":914,"y":249,"w":128,"h":123},
	"rotated": false,
	"trimmed": true,
	"spriteSourceSize": {"x":0,"y":0,"w":128,"h":123},
	"sourceSize": {"w":130,"h":123}
},
"progressbar/splashscreen_0024":
{
	"frame": {"x":1044,"y":250,"w":128,"h":123},
	"rotated": false,
	"trimmed": true,
	"spriteSourceSize": {"x":0,"y":0,"w":128,"h":123},
	"sourceSize": {"w":130,"h":123}
},
"progressbar/splashscreen_0026":
{
	"frame": {"x":1174,"y":250,"w":128,"h":123},
	"rotated": false,
	"trimmed": true,
	"spriteSourceSize": {"x":0,"y":0,"w":128,"h":123},
	"sourceSize": {"w":130,"h":123}
},
"progressbar/splashscreen_0028":
{
	"frame": {"x":1304,"y":250,"w":128,"h":123},
	"rotated": false,
	"trimmed": true,
	"spriteSourceSize": {"x":0,"y":0,"w":128,"h":123},
	"sourceSize": {"w":130,"h":123}
},
"progressbar/splashscreen_0030":
{
	"frame": {"x":1434,"y":250,"w":128,"h":123},
	"rotated": false,
	"trimmed": true,
	"spriteSourceSize": {"x":0,"y":0,"w":128,"h":123},
	"sourceSize": {"w":130,"h":123}
},
"progressbar/splashscreen_0032":
{
	"frame": {"x":1564,"y":250,"w":128,"h":123},
	"rotated": false,
	"trimmed": true,
	"spriteSourceSize": {"x":0,"y":0,"w":128,"h":123},
	"sourceSize": {"w":130,"h":123}
},
"progressbar/splashscreen_0034":
{
	"frame": {"x":1,"y":373,"w":128,"h":123},
	"rotated": false,
	"trimmed": true,
	"spriteSourceSize": {"x":0,"y":0,"w":128,"h":123},
	"sourceSize": {"w":130,"h":123}
},
"progressbar/splashscreen_0036":
{
	"frame": {"x":131,"y":373,"w":129,"h":123},
	"rotated": false,
	"trimmed": true,
	"spriteSourceSize": {"x":0,"y":0,"w":129,"h":123},
	"sourceSize": {"w":130,"h":123}
},
"progressbar/splashscreen_0038":
{
	"frame": {"x":262,"y":373,"w":129,"h":123},
	"rotated": false,
	"trimmed": true,
	"spriteSourceSize": {"x":0,"y":0,"w":129,"h":123},
	"sourceSize": {"w":130,"h":123}
},
"progressbar/splashscreen_0040":
{
	"frame": {"x":393,"y":373,"w":129,"h":123},
	"rotated": false,
	"trimmed": true,
	"spriteSourceSize": {"x":0,"y":0,"w":129,"h":123},
	"sourceSize": {"w":130,"h":123}
},
"progressbar/splashscreen_0042":
{
	"frame": {"x":524,"y":373,"w":129,"h":123},
	"rotated": false,
	"trimmed": true,
	"spriteSourceSize": {"x":0,"y":0,"w":129,"h":123},
	"sourceSize": {"w":130,"h":123}
},
"progressbar/splashscreen_0044":
{
	"frame": {"x":922,"y":1,"w":130,"h":122},
	"rotated": false,
	"trimmed": true,
	"spriteSourceSize": {"x":0,"y":1,"w":130,"h":122},
	"sourceSize": {"w":130,"h":123}
},
"progressbar/splashscreen_0046":
{
	"frame": {"x":1,"y":1,"w":130,"h":121},
	"rotated": false,
	"trimmed": true,
	"spriteSourceSize": {"x":0,"y":2,"w":130,"h":121},
	"sourceSize": {"w":130,"h":123}
},
"progressbar/splashscreen_0048":
{
	"frame": {"x":133,"y":1,"w":130,"h":121},
	"rotated": false,
	"trimmed": true,
	"spriteSourceSize": {"x":0,"y":2,"w":130,"h":121},
	"sourceSize": {"w":130,"h":123}
},
"progressbar/splashscreen_0050":
{
	"frame": {"x":265,"y":1,"w":130,"h":121},
	"rotated": false,
	"trimmed": true,
	"spriteSourceSize": {"x":0,"y":2,"w":130,"h":121},
	"sourceSize": {"w":130,"h":123}
},
"progressbar/splashscreen_0052":
{
	"frame": {"x":397,"y":1,"w":130,"h":121},
	"rotated": false,
	"trimmed": true,
	"spriteSourceSize": {"x":0,"y":2,"w":130,"h":121},
	"sourceSize": {"w":130,"h":123}
},
"progressbar/splashscreen_0054":
{
	"frame": {"x":529,"y":1,"w":129,"h":121},
	"rotated": false,
	"trimmed": true,
	"spriteSourceSize": {"x":0,"y":2,"w":129,"h":121},
	"sourceSize": {"w":130,"h":123}
},
"progressbar/splashscreen_0056":
{
	"frame": {"x":660,"y":1,"w":129,"h":121},
	"rotated": false,
	"trimmed": true,
	"spriteSourceSize": {"x":0,"y":2,"w":129,"h":121},
	"sourceSize": {"w":130,"h":123}
},
"progressbar/splashscreen_0058":
{
	"frame": {"x":791,"y":1,"w":129,"h":121},
	"rotated": false,
	"trimmed": true,
	"spriteSourceSize": {"x":0,"y":2,"w":129,"h":121},
	"sourceSize": {"w":130,"h":123}
},
"progressbar/splashscreen_0060":
{
	"frame": {"x":1054,"y":1,"w":130,"h":122},
	"rotated": false,
	"trimmed": true,
	"spriteSourceSize": {"x":0,"y":1,"w":130,"h":122},
	"sourceSize": {"w":130,"h":123}
},
"progressbar/splashscreen_0062":
{
	"frame": {"x":1186,"y":1,"w":130,"h":122},
	"rotated": false,
	"trimmed": true,
	"spriteSourceSize": {"x":0,"y":1,"w":130,"h":122},
	"sourceSize": {"w":130,"h":123}
},
"progressbar/splashscreen_0064":
{
	"frame": {"x":1318,"y":1,"w":130,"h":122},
	"rotated": false,
	"trimmed": true,
	"spriteSourceSize": {"x":0,"y":1,"w":130,"h":122},
	"sourceSize": {"w":130,"h":123}
},
"progressbar/splashscreen_0066":
{
	"frame": {"x":1450,"y":1,"w":130,"h":122},
	"rotated": false,
	"trimmed": true,
	"spriteSourceSize": {"x":0,"y":1,"w":130,"h":122},
	"sourceSize": {"w":130,"h":123}
},
"progressbar/splashscreen_0068":
{
	"frame": {"x":655,"y":373,"w":130,"h":123},
	"rotated": false,
	"trimmed": false,
	"spriteSourceSize": {"x":0,"y":0,"w":130,"h":123},
	"sourceSize": {"w":130,"h":123}
},
"progressbar/splashscreen_0070":
{
	"frame": {"x":787,"y":374,"w":129,"h":123},
	"rotated": false,
	"trimmed": true,
	"spriteSourceSize": {"x":0,"y":0,"w":129,"h":123},
	"sourceSize": {"w":130,"h":123}
},
"progressbar/splashscreen_0072":
{
	"frame": {"x":1567,"y":125,"w":127,"h":123},
	"rotated": false,
	"trimmed": true,
	"spriteSourceSize": {"x":0,"y":0,"w":127,"h":123},
	"sourceSize": {"w":130,"h":123}
},
"progressbar/splashscreen_0074":
{
	"frame": {"x":918,"y":375,"w":127,"h":123},
	"rotated": false,
	"trimmed": true,
	"spriteSourceSize": {"x":0,"y":0,"w":127,"h":123},
	"sourceSize": {"w":130,"h":123}
},
"progressbar/splashscreen_0076":
{
	"frame": {"x":1,"y":124,"w":127,"h":122},
	"rotated": false,
	"trimmed": true,
	"spriteSourceSize": {"x":1,"y":1,"w":127,"h":122},
	"sourceSize": {"w":130,"h":123}
},
"progressbar/splashscreen_0078":
{
	"frame": {"x":130,"y":124,"w":128,"h":122},
	"rotated": false,
	"trimmed": true,
	"spriteSourceSize": {"x":0,"y":1,"w":128,"h":122},
	"sourceSize": {"w":130,"h":123}
},
"progressbar/splashscreen_0080":
{
	"frame": {"x":260,"y":124,"w":128,"h":122},
	"rotated": false,
	"trimmed": true,
	"spriteSourceSize": {"x":0,"y":1,"w":128,"h":122},
	"sourceSize": {"w":130,"h":123}
},
"progressbar/splashscreen_0082":
{
	"frame": {"x":390,"y":124,"w":129,"h":122},
	"rotated": false,
	"trimmed": true,
	"spriteSourceSize": {"x":0,"y":1,"w":129,"h":122},
	"sourceSize": {"w":130,"h":123}
},
"progressbar/splashscreen_0084":
{
	"frame": {"x":521,"y":124,"w":129,"h":122},
	"rotated": false,
	"trimmed": true,
	"spriteSourceSize": {"x":0,"y":1,"w":129,"h":122},
	"sourceSize": {"w":130,"h":123}
},
"progressbar/splashscreen_0086":
{
	"frame": {"x":652,"y":124,"w":129,"h":122},
	"rotated": false,
	"trimmed": true,
	"spriteSourceSize": {"x":0,"y":1,"w":129,"h":122},
	"sourceSize": {"w":130,"h":123}
},
"progressbar/splashscreen_0088":
{
	"frame": {"x":783,"y":124,"w":130,"h":122},
	"rotated": false,
	"trimmed": true,
	"spriteSourceSize": {"x":0,"y":1,"w":130,"h":122},
	"sourceSize": {"w":130,"h":123}
},
"progressbar/splashscreen_0090":
{
	"frame": {"x":915,"y":125,"w":130,"h":122},
	"rotated": false,
	"trimmed": true,
	"spriteSourceSize": {"x":0,"y":1,"w":130,"h":122},
	"sourceSize": {"w":130,"h":123}
},
"progressbar/splashscreen_0092":
{
	"frame": {"x":1047,"y":375,"w":130,"h":123},
	"rotated": false,
	"trimmed": false,
	"spriteSourceSize": {"x":0,"y":0,"w":130,"h":123},
	"sourceSize": {"w":130,"h":123}
},
"progressbar/splashscreen_0094":
{
	"frame": {"x":1179,"y":375,"w":130,"h":123},
	"rotated": false,
	"trimmed": false,
	"spriteSourceSize": {"x":0,"y":0,"w":130,"h":123},
	"sourceSize": {"w":130,"h":123}
},
"progressbar/splashscreen_0096":
{
	"frame": {"x":1311,"y":375,"w":129,"h":123},
	"rotated": false,
	"trimmed": true,
	"spriteSourceSize": {"x":0,"y":0,"w":129,"h":123},
	"sourceSize": {"w":130,"h":123}
},
"progressbar/splashscreen_0098":
{
	"frame": {"x":1442,"y":375,"w":128,"h":123},
	"rotated": false,
	"trimmed": true,
	"spriteSourceSize": {"x":0,"y":0,"w":128,"h":123},
	"sourceSize": {"w":130,"h":123}
}},
"meta": {
	"app": "http://www.codeandweb.com/texturepacker",
	"version": "1.0",
	"image": "progerssbar.png",
	"format": "RGBA8888",
	"size": {"w":1695,"h":499},
	"scale": "1",
	"smartupdate": "$TexturePacker:SmartUpdate:c82d5bd68ab4b030dd4d5d8fa2980618:44572872b33554a3f291f483fd8384ba:17a6c9c8615f84f64eb276bfaf28ec32$"
}
}
