{"frames": {

"infoNext_btn/disabled":
{
	"frame": {"x":903,"y":1,"w":77,"h":112},
	"rotated": false,
	"trimmed": false,
	"spriteSourceSize": {"x":0,"y":0,"w":77,"h":112},
	"sourceSize": {"w":77,"h":112}
},
"infoNext_btn/down":
{
	"frame": {"x":903,"y":115,"w":77,"h":112},
	"rotated": false,
	"trimmed": false,
	"spriteSourceSize": {"x":0,"y":0,"w":77,"h":112},
	"sourceSize": {"w":77,"h":112}
},
"infoNext_btn/enabled":
{
	"frame": {"x":903,"y":229,"w":77,"h":112},
	"rotated": false,
	"trimmed": false,
	"spriteSourceSize": {"x":0,"y":0,"w":77,"h":112},
	"sourceSize": {"w":77,"h":112}
},
"infoNext_btn/over":
{
	"frame": {"x":903,"y":343,"w":77,"h":112},
	"rotated": false,
	"trimmed": false,
	"spriteSourceSize": {"x":0,"y":0,"w":77,"h":112},
	"sourceSize": {"w":77,"h":112}
},
"infoPrew_btn/disabled":
{
	"frame": {"x":903,"y":457,"w":77,"h":112},
	"rotated": false,
	"trimmed": false,
	"spriteSourceSize": {"x":0,"y":0,"w":77,"h":112},
	"sourceSize": {"w":77,"h":112}
},
"infoPrew_btn/down":
{
	"frame": {"x":903,"y":571,"w":77,"h":112},
	"rotated": false,
	"trimmed": false,
	"spriteSourceSize": {"x":0,"y":0,"w":77,"h":112},
	"sourceSize": {"w":77,"h":112}
},
"infoPrew_btn/enabled":
{
	"frame": {"x":903,"y":685,"w":77,"h":112},
	"rotated": false,
	"trimmed": false,
	"spriteSourceSize": {"x":0,"y":0,"w":77,"h":112},
	"sourceSize": {"w":77,"h":112}
},
"infoPrew_btn/over":
{
	"frame": {"x":903,"y":799,"w":77,"h":112},
	"rotated": false,
	"trimmed": false,
	"spriteSourceSize": {"x":0,"y":0,"w":77,"h":112},
	"sourceSize": {"w":77,"h":112}
},
"lines_1":
{
	"frame": {"x":1,"y":1,"w":900,"h":455},
	"rotated": false,
	"trimmed": true,
	"spriteSourceSize": {"x":229,"y":161,"w":900,"h":455},
	"sourceSize": {"w":1366,"h":768}
},
"lines_2":
{
	"frame": {"x":1,"y":458,"w":900,"h":453},
	"rotated": false,
	"trimmed": true,
	"spriteSourceSize": {"x":229,"y":161,"w":900,"h":453},
	"sourceSize": {"w":1366,"h":768}
}},
"meta": {
	"app": "http://www.codeandweb.com/texturepacker",
	"version": "1.0",
	"image": "paytable.png",
	"format": "RGBA8888",
	"size": {"w":981,"h":912},
	"scale": "1",
	"smartupdate": "$TexturePacker:SmartUpdate:d13695d6fd7536e33dc4bae75b2124dc:67357fe9d387db6faaef448c3d9a2081:0f68fea9f431d65eb54c267865589464$"
}
}
