{"frames": {

"icon_2_blurred":
{
	"frame": {"x":1,"y":1096,"w":146,"h":221},
	"rotated": false,
	"trimmed": true,
	"spriteSourceSize": {"x":30,"y":18,"w":146,"h":221},
	"sourceSize": {"w":192,"h":260}
},
"icon_3_blurred":
{
	"frame": {"x":199,"y":572,"w":192,"h":260},
	"rotated": false,
	"trimmed": false,
	"spriteSourceSize": {"x":0,"y":0,"w":192,"h":260},
	"sourceSize": {"w":192,"h":260}
},
"icon_4_blurred":
{
	"frame": {"x":188,"y":834,"w":184,"h":256},
	"rotated": false,
	"trimmed": true,
	"spriteSourceSize": {"x":4,"y":4,"w":184,"h":256},
	"sourceSize": {"w":192,"h":260}
},
"icon_5_blurred":
{
	"frame": {"x":188,"y":1092,"w":171,"h":250},
	"rotated": false,
	"trimmed": false,
	"spriteSourceSize": {"x":0,"y":0,"w":171,"h":250},
	"sourceSize": {"w":171,"h":250}
},
"icon_6_blurred":
{
	"frame": {"x":1,"y":830,"w":185,"h":264},
	"rotated": false,
	"trimmed": false,
	"spriteSourceSize": {"x":0,"y":0,"w":185,"h":264},
	"sourceSize": {"w":185,"h":264}
},
"icon_blue_blurred":
{
	"frame": {"x":1,"y":574,"w":194,"h":254},
	"rotated": false,
	"trimmed": true,
	"spriteSourceSize": {"x":2,"y":3,"w":194,"h":254},
	"sourceSize": {"w":196,"h":257}
},
"icon_green_blurred":
{
	"frame": {"x":199,"y":315,"w":196,"h":255},
	"rotated": false,
	"trimmed": true,
	"spriteSourceSize": {"x":0,"y":2,"w":196,"h":255},
	"sourceSize": {"w":196,"h":257}
},
"icon_orange_blurred":
{
	"frame": {"x":1,"y":315,"w":196,"h":257},
	"rotated": false,
	"trimmed": false,
	"spriteSourceSize": {"x":0,"y":0,"w":196,"h":257},
	"sourceSize": {"w":196,"h":257}
},
"icon_scatter_blurred":
{
	"frame": {"x":1,"y":1,"w":204,"h":312},
	"rotated": false,
	"trimmed": false,
	"spriteSourceSize": {"x":0,"y":0,"w":204,"h":312},
	"sourceSize": {"w":204,"h":312}
},
"icon_wild_blurred":
{
	"frame": {"x":207,"y":1,"w":204,"h":312},
	"rotated": false,
	"trimmed": false,
	"spriteSourceSize": {"x":0,"y":0,"w":204,"h":312},
	"sourceSize": {"w":204,"h":312}
}},
"meta": {
	"app": "http://www.codeandweb.com/texturepacker",
	"version": "1.0",
	"image": "symbols_blurred.png",
	"format": "RGBA8888",
	"size": {"w":412,"h":1343},
	"scale": "1",
	"smartupdate": "$TexturePacker:SmartUpdate:43702f451e4e8a43e6ac9035fb522f16:24e442ca46efe6ff9ab0d12f268c61aa:8d8c2e58c2390f8e378a64f303223894$"
}
}
